network_code,receiver_code,receiver_type,receiver_latitude,receiver_longitude,receiver_elevation_m,p_arrival_sample,p_status,p_weight,p_travel_sec,s_arrival_sample,s_status,s_weight,source_id,source_origin_time,source_origin_uncertainty_sec,source_latitude,source_longitude,source_error_sec,source_gap_deg,source_horizontal_uncertainty_km,source_depth_km,source_depth_uncertainty_km,source_magnitude,source_magnitude_type,source_magnitude_author,source_mechanism_strike_dip_rake,source_distance_deg,source_distance_km,back_azimuth_deg,snr_db,coda_end_sample,trace_start_time,trace_category,trace_name
SC,CBET,BH,32.4203,-103.878998,1042,700,manual,0.02,47.61,2260.0000348684844,manual,0.05,NA,NA,0.5,31.750833333333333,104.086,NA,113,NA,5,NA,2.65,ml,None,None,NA,74.7,186,[0 0 3.10940179535165],NA,NA,earthquake_local,CBET.SC_20200902051800_EV
SC,CBET,BH,32.4203,-103.878998,1042,700,manual,0.04,31.58,2409.0000381991267,manual,0.07,NA,NA,0.25,31.768,104.10533333333333,NA,113,NA,5,NA,2.61,ml,None,None,NA,73,188,[0 0 4.4826578088309],NA,NA,earthquake_local,CBET.SC_20200902141300_EV
SC,CL2B,BH,32.264099,-103.878998,1046,700,manual,0.08,53.44,2552.000041395426,manual,0.19,NA,NA,0.25,31.66433333333333,104.18716666666667,NA,134,NA,5,NA,2.13,ml,None,None,NA,72.1,203,[0 0 10.9728493763783],NA,NA,earthquake_local,CL2B.SC_20200901131900_EV
SC,CL2B,BH,32.264099,-103.878998,1046,700,manual,0.03,64.29,2702.0000447491184,manual,0.05,NA,NA,0.5,31.642333333333333,104.4815,NA,156,NA,5,NA,2.01,ml,None,None,NA,88.5,219,[0 0 13.5282764325336],NA,NA,earthquake_local,CL2B.SC_20200901185100_EV
SC,CL2B,BH,32.264099,-103.878998,1046,700,manual,0.38,22.93,1889.0000265780836,manual,0.62,NA,NA,0.25,31.9615,103.88616666666667,NA,177,NA,5,NA,1.77,ml,None,None,NA,33.6,180,[0 0 10.2630080019851],NA,NA,earthquake_local,CL2B.SC_20200901225500_EV
SC,CL2B,BH,32.264099,-103.878998,1046,700,manual,0.07,86.01,2223.0000340435654,manual,0.17,NA,NA,0.25,31.728666666666665,104.38766666666666,NA,139,NA,5,NA,2.13,ml,None,None,NA,75.6,218,[0 0 9.93464325732992],NA,NA,earthquake_local,CL2B.SC_20200901234300_EV
SC,CL2B,BH,32.264099,-103.878998,1046,700,manual,0.04,81.11,2461.0000393614173,manual,0.1,NA,NA,0.25,31.741,104.0895,NA,115,NA,5,NA,2.27,ml,None,None,NA,61,198,[0 0 3.88321472203456],NA,NA,earthquake_local,CL2B.SC_20200902013500_EV
SC,CL2B,BH,32.264099,-103.878998,1046,700,manual,0.04,69.83,2181.0000331026968,manual,0.1,NA,NA,0.25,31.754,104.09733333333334,NA,114,NA,5,NA,2.56,ml,None,None,NA,59.9,199,[0 0 5.25570458198123],NA,NA,earthquake_local,CL2B.SC_20200902050800_EV
SC,CL2B,BH,32.264099,-103.878998,1046,700,manual,0.04,46.28,2221.000033997232,manual,0.11,NA,NA,0.25,31.750833333333333,104.086,NA,113,NA,5,NA,2.65,ml,None,None,NA,59.9,198,[0 0 3.72238554419984],NA,NA,earthquake_local,CL2B.SC_20200902051800_EV
SC,CL2B,BH,32.264099,-103.878998,1046,700,manual,0.04,89.86,2226.000034108758,manual,0.11,NA,NA,0.25,31.761,104.081,NA,112,NA,5,NA,2.46,ml,None,None,NA,58.7,198,[0 0 4.09372226288638],NA,NA,earthquake_local,CL2B.SC_20200902070200_EV
SC,CL2B,BH,32.264099,-103.878998,1046,700,manual,0.14,61.99,2795.0000468264334,manual,0.12,NA,NA,0.25,31.439333333333334,103.39216666666667,NA,159,NA,5,NA,2.31,ml,None,None,NA,102.8,153,[0 0 3.81006428723666],NA,NA,earthquake_local,CL2B.SC_20200902081200_EV
SC,CL2B,BH,32.264099,-103.878998,1046,700,manual,0.05,43.72,2223.0000340417027,manual,0.11,NA,NA,0.25,31.749666666666666,104.08316666666667,NA,113,NA,5,NA,2.19,ml,None,None,NA,59.9,198,[0 0 1.85943459355159],NA,NA,earthquake_local,CL2B.SC_20200902140400_EV
SC,CL2B,BH,32.264099,-103.878998,1046,700,manual,0.04,29.7,2241.000034444034,manual,0.08,NA,NA,0.25,31.768,104.10533333333333,NA,113,NA,5,NA,2.61,ml,None,None,NA,58.7,200,[0 0 3.08401619042235],NA,NA,earthquake_local,CL2B.SC_20200902141300_EV
SC,CL2B,BH,32.264099,-103.878998,1046,700,manual,0.08,80.22,2159.00003261026,manual,0.18,NA,NA,0.25,31.739,104.07433333333333,NA,113,NA,5,NA,2.08,ml,None,None,NA,60.8,197,[0 0 5.35174285728305],NA,NA,earthquake_local,CL2B.SC_20200902160000_EV
SC,CL2B,BH,32.264099,-103.878998,1046,700,manual,0.3,74.53,1856.0000258376822,manual,0.47,NA,NA,0.25,31.983666666666668,103.78783333333334,NA,142,NA,5,NA,2.11,ml,None,None,NA,32.4,164,[0 0 3.59401426810963],NA,NA,earthquake_local,CL2B.SC_20200902163100_EV
SC,CL2B,BH,32.264099,-103.878998,1046,700,manual,0.06,50.16,2340.000036655925,manual,0.15,NA,NA,0.25,31.709833333333332,104.3605,NA,140,NA,5,NA,2.13,ml,None,None,NA,75.7,216,[0 0 5.37582101499483],NA,NA,earthquake_local,CL2B.SC_20200902165300_EV
SC,CL2B,BH,32.264099,-103.878998,1046,700,manual,0.1,63.72,2071.0000306433067,manual,0.22,NA,NA,0.25,31.745333333333335,104.084,NA,114,NA,5,NA,2.1,ml,None,None,NA,60.4,198,[0 0 3.00061249552517],NA,NA,earthquake_local,CL2B.SC_20200902204500_EV
SC,CL2B,BH,32.264099,-103.878998,1046,700,manual,0.15,40.16,2414.0000383108854,manual,0.3,NA,NA,0.25,31.629666666666665,103.928,NA,105,NA,5,NA,1.92,ml,None,None,NA,70.5,183,[0 0 3.14384118757832],NA,NA,earthquake_local,CL2B.SC_20200902213400_EV
SC,CL2B,BH,32.264099,-103.878998,1046,700,manual,0.05,47.31,2107.0000314489007,manual,0.13,NA,NA,0.25,31.735333333333333,104.096,NA,116,NA,5,NA,2.31,ml,None,None,NA,61.8,198,[0 0 4.74052494471098],NA,NA,earthquake_local,CL2B.SC_20200902221700_EV
SC,CL2B,BH,32.264099,-103.878998,1046,700,manual,0.06,89.53,2099.000031271018,manual,0.14,NA,NA,0.25,31.729333333333333,104.08566666666667,NA,116,NA,5,NA,2.23,ml,None,None,NA,62.1,197,[0 0 6.44915755949619],NA,NA,earthquake_local,CL2B.SC_20200902230600_EV
SC,CPRX,BH,33.0308,-103.867302,1361,700,manual,0.04,64.55,3179.000055409968,manual,0.11,NA,NA,0.25,31.615,104.29433333333333,NA,151,NA,5,NA,2.36,ml,None,None,NA,161.5,194,[0 0 5.59327093791589],NA,NA,earthquake_local,CPRX.SC_20200901074800_EV
SC,CPRX,BH,33.0308,-103.867302,1361,700,manual,0.04,76.7,3428.0000609755516,manual,0.1,NA,NA,0.25,31.642333333333333,104.4815,NA,156,NA,5,NA,2.01,ml,None,None,NA,163.6,200,[0 0 9.84382076560146],NA,NA,earthquake_local,CPRX.SC_20200901185100_EV
SC,CPRX,BH,33.0308,-103.867302,1361,700,manual,0.03,83.45,3048.0000524818897,manual,0.06,NA,NA,0.25,31.754,104.09733333333334,NA,114,NA,5,NA,2.56,ml,None,None,NA,143,188,[0 0 4.97566913095805],NA,NA,earthquake_local,CPRX.SC_20200902050800_EV
SC,CPRX,BH,33.0308,-103.867302,1361,700,manual,0.03,59.64,3158.000054940814,manual,0.06,NA,NA,0.25,31.750833333333333,104.086,NA,113,NA,5,NA,2.65,ml,None,None,NA,143.2,187,[0 0 5.08427489149602],NA,NA,earthquake_local,CPRX.SC_20200902051800_EV
SC,CPRX,BH,33.0308,-103.867302,1361,700,manual,0.04,74.43,3396.000060260296,manual,0.1,NA,NA,0.25,31.696833333333334,104.514,NA,149,NA,5,NA,2.29,ml,None,None,NA,159.1,202,[0 0 5.41621083300066],NA,NA,earthquake_local,CPRX.SC_20200902115100_EV
SC,CPRX,BH,33.0308,-103.867302,1361,700,manual,0.06,43.83,3308.0000582933426,manual,0.14,NA,NA,0.25,31.6445,104.27433333333333,NA,145,NA,5,NA,2.18,ml,None,None,NA,157.9,193,[0 0 3.01136480557028],NA,NA,earthquake_local,CPRX.SC_20200902121600_EV
SC,CPRX,BH,33.0308,-103.867302,1361,700,manual,0.06,82.28,3165.0000550970435,manual,0.14,NA,NA,0.25,31.752,104.08066666666667,NA,113,NA,5,NA,2.2,ml,None,None,NA,143,187,[0 0 6.19700575851328],NA,NA,earthquake_local,CPRX.SC_20200902131000_EV
SC,CPRX,BH,33.0308,-103.867302,1361,700,manual,0.03,57.17,3157.0000549182296,manual,0.06,NA,NA,0.25,31.749666666666666,104.08316666666667,NA,113,NA,5,NA,2.19,ml,None,None,NA,143.3,187,[0 0 7.0107545356908],NA,NA,earthquake_local,CPRX.SC_20200902140400_EV
SC,CPRX,BH,33.0308,-103.867302,1361,700,manual,0.02,43.27,3055.000052638352,manual,0.05,NA,NA,0.25,31.768,104.10533333333333,NA,113,NA,5,NA,2.61,ml,None,None,NA,141.5,188,[0 0 5.13851655365834],NA,NA,earthquake_local,CPRX.SC_20200902141300_EV
SC,CPRX,BH,33.0308,-103.867302,1361,700,manual,0.04,62.74,3252.0000570425764,manual,0.08,NA,NA,0.25,31.709833333333332,104.3605,NA,140,NA,5,NA,2.13,ml,None,None,NA,153,197,[0 0 3.15657029889833],NA,NA,earthquake_local,CPRX.SC_20200902165300_EV
SC,CPRX,BH,33.0308,-103.867302,1361,700,manual,0.08,74.5,3378.0000598579645,manual,0.2,NA,NA,0.25,31.706666666666667,104.354,NA,140,NA,5,NA,2.04,ml,None,None,NA,153.2,196,[0 0 3.84860353583723],NA,NA,earthquake_local,CPRX.SC_20200902174900_EV
SC,CPRX,BH,33.0308,-103.867302,1361,700,manual,0.08,54.24,3306.000058248639,manual,0.17,NA,NA,0.25,31.629666666666665,103.928,NA,105,NA,5,NA,1.92,ml,None,None,NA,155.4,181,[0 0 9.73649251950274],NA,NA,earthquake_local,CPRX.SC_20200902213400_EV
SC,CPRX,BH,33.0308,-103.867302,1361,700,manual,0.03,59.41,3145.0000546500087,manual,0.07,NA,NA,0.25,31.735333333333333,104.096,NA,116,NA,5,NA,2.31,ml,None,None,NA,145,188,[0 0 4.40856466347273],NA,NA,earthquake_local,CPRX.SC_20200902221700_EV
SC,DAG,BH,32.591,-104.691704,1280,700,manual,0.12,49.26,2852.0000481009483,manual,0.25,NA,NA,0.25,31.5965,104.12483333333333,NA,139,NA,5,NA,2.21,ml,None,None,NA,123,154,[0 0 21.2992503410357],NA,NA,earthquake_local,DAG.SC_20200901032600_EV
SC,DAG,BH,32.591,-104.691704,1280,700,manual,0.1,57.29,2534.0000409928616,manual,0.18,NA,NA,0.25,31.748833333333334,104.29816666666666,NA,143,NA,5,NA,1.85,ml,None,None,NA,100.8,158,[0 0 26.0814902046442],NA,NA,earthquake_local,DAG.SC_20200901040500_EV
SC,DAG,BH,32.591,-104.691704,1280,700,manual,0.07,80.91,2606.00004260242,manual,0.12,NA,NA,0.25,31.749333333333333,104.08533333333334,NA,113,NA,5,NA,2.17,ml,None,None,NA,109.8,148,[0 0 23.3059415470429],NA,NA,earthquake_local,DAG.SC_20200901060500_EV
SC,DAG,BH,32.591,-104.691704,1280,700,manual,0.36,53.3,2714.000045016408,manual,0.22,NA,NA,0.25,31.599166666666665,104.17616666666666,NA,204,NA,5,NA,1.97,ml,None,None,NA,120.7,156,[0 0 13.5273449892597],NA,NA,earthquake_local,DAG.SC_20200901073300_EV
SC,DAG,BH,32.591,-104.691704,1280,700,manual,0.07,54.78,3018.0000518113375,manual,0.14,NA,NA,0.25,31.615,104.29433333333333,NA,151,NA,5,NA,2.36,ml,None,None,NA,114.9,160,[0 0 28.7824547149256],NA,NA,earthquake_local,DAG.SC_20200901074800_EV
SC,DAG,BH,32.591,-104.691704,1280,700,manual,0.14,83.03,2771.000046290923,manual,0.26,NA,NA,0.25,31.622166666666665,104.29533333333333,NA,150,NA,5,NA,2.29,ml,None,None,NA,114.1,160,[0 0 15.4869733535675],NA,NA,earthquake_local,DAG.SC_20200901075300_EV
SC,DAG,BH,32.591,-104.691704,1280,700,manual,0.3,84.87,2563.0000416408293,manual,0.35,NA,NA,0.25,31.934333333333335,103.92216666666667,NA,347,NA,5,NA,1.68,ml,None,None,NA,102.9,135,[0 0 11.4667914155055],NA,NA,earthquake_local,DAG.SC_20200901092400_EV
SC,DAG,BH,32.591,-104.691704,1280,700,manual,0.07,38.06,2721.00004517287,manual,0.13,NA,NA,0.25,31.755166666666668,104.05983333333333,NA,110,NA,5,NA,1.8,ml,None,None,NA,110.5,147,[0 0 9.90210757850965],NA,NA,earthquake_local,DAG.SC_20200901095900_EV
SC,DAG,BH,32.591,-104.691704,1280,700,manual,0.07,53.88,2721.00004517287,manual,0.12,NA,NA,0.25,31.7275,104.1175,NA,119,NA,5,NA,2.2,ml,None,None,NA,110.4,150,[0 0 18.423682989179],NA,NA,earthquake_local,DAG.SC_20200901103700_EV
SC,DAG,BH,32.591,-104.691704,1280,700,manual,0.08,60.41,2729.000045351684,manual,0.13,NA,NA,0.25,31.66433333333333,104.18716666666667,NA,134,NA,5,NA,2.13,ml,None,None,NA,113.6,155,[0 0 25.8579565771497],NA,NA,earthquake_local,DAG.SC_20200901131900_EV
SC,DAG,BH,32.591,-104.691704,1280,700,manual,0.1,70.22,2561.0000415965915,manual,0.21,NA,NA,0.25,31.729,104.53916666666667,NA,145,NA,5,NA,1.99,ml,None,None,NA,96.9,171,[0 0 16.7683887040709],NA,NA,earthquake_local,DAG.SC_20200901135800_EV
SC,DAG,BH,32.591,-104.691704,1280,700,manual,0.22,36.93,2571.000041820109,manual,0.38,NA,NA,0.5,31.7375,104.27583333333334,NA,277,NA,5,NA,1.81,ml,None,None,NA,102.8,157,[0 0 11.6762469549843],NA,NA,earthquake_local,DAG.SC_20200901151300_EV
SC,DAG,BH,32.591,-104.691704,1280,700,manual,0.48,66.77,2690.000044479966,manual,0.45,NA,NA,0.25,32.0035,103.71866666666666,NA,244,NA,5,NA,1.67,ml,None,None,NA,112.4,125,[0 0 14.338082552315],NA,NA,earthquake_local,DAG.SC_20200901151500_EV
SC,DAG,BH,32.591,-104.691704,1280,700,manual,0.13,47.7,2686.000044390559,manual,0.23,NA,NA,0.25,31.691333333333333,104.22283333333333,NA,150,NA,5,NA,1.76,ml,None,None,NA,109.5,156,[0 0 10.0879149376916],NA,NA,earthquake_local,DAG.SC_20200901154500_EV
SC,DAG,BH,32.591,-104.691704,1280,700,manual,0.07,67.04,2614.000042781234,manual,0.14,NA,NA,0.25,31.642333333333333,104.4815,NA,156,NA,5,NA,2.01,ml,None,None,NA,107.3,169,[0 0 30.9105887890631],NA,NA,earthquake_local,DAG.SC_20200901185100_EV
SC,DAG,BH,32.591,-104.691704,1280,700,manual,0.1,62.87,2650.0000435858965,manual,0.19,NA,NA,0.25,31.66583333333333,104.45166666666667,NA,151,NA,5,NA,2.07,ml,None,None,NA,105.3,167,[0 0 23.3006964721111],NA,NA,earthquake_local,DAG.SC_20200901195100_EV
SC,DAG,BH,32.591,-104.691704,1280,700,manual,0.33,41.52,2614.000042781234,manual,0.3,NA,NA,0.25,32.060833333333335,103.68716666666667,NA,313,NA,5,NA,2.16,ml,None,None,NA,111.3,122,[0 0 18.9242053665553],NA,NA,earthquake_local,DAG.SC_20200901200900_EV
SC,DAG,BH,32.591,-104.691704,1280,700,manual,0.13,34.57,2650.0000435858965,manual,0.3,NA,NA,0.25,31.9615,103.88616666666667,NA,177,NA,5,NA,1.77,ml,None,None,NA,103.3,133,[0 0 14.038806093044],NA,NA,earthquake_local,DAG.SC_20200901225500_EV
SC,DAG,BH,32.591,-104.691704,1280,700,manual,0.1,85.1,2821.000047407113,manual,0.2,NA,NA,0.25,31.74266666666667,104.51666666666667,NA,142,NA,5,NA,1.94,ml,None,None,NA,95.7,170,[0 0 12.4039772602796],NA,NA,earthquake_local,DAG.SC_20200901225800_EV
SC,DAG,BH,32.591,-104.691704,1280,700,manual,0.11,52.86,2578.000041976513,manual,0.2,NA,NA,0.25,31.721166666666665,104.40516666666667,NA,141,NA,5,NA,2.2,ml,None,None,NA,100.5,164,[0 0 5.3803560388918],NA,NA,earthquake_local,DAG.SC_20200902005900_EV
SC,DAG,BH,32.591,-104.691704,1280,700,manual,0.15,53.74,2774.0000463575125,manual,0.29,NA,NA,0.25,31.7815,104.03083333333333,NA,153,NA,5,NA,2.19,ml,None,None,NA,109.6,145,[0 0 3.68596603103491],NA,NA,earthquake_local,DAG.SC_20200902014900_EV
SC,DAG,BH,32.591,-104.691704,1280,700,manual,0.17,60.96,2712.000044971821,manual,0.34,NA,NA,0.25,31.652333333333335,104.24366666666667,NA,142,NA,5,NA,1.97,ml,None,None,NA,112.7,158,[0 0 4.94087018465868],NA,NA,earthquake_local,DAG.SC_20200902024600_EV
SC,DAG,BH,32.591,-104.691704,1280,700,manual,0.1,35.69,2459.000039316714,manual,0.18,NA,NA,0.25,31.740833333333335,104.36416666666666,NA,136,NA,5,NA,2.24,ml,None,None,NA,99.5,161,[0 0 4.64540451713302],NA,NA,earthquake_local,DAG.SC_20200902025400_EV
SC,DAG,BH,32.591,-104.691704,1280,700,manual,0.27,38.82,2776.000046402216,manual,0.63,NA,NA,0.25,31.702166666666667,104.3025,NA,276,NA,5,NA,2.23,ml,None,None,NA,105.5,159,[0 0 0.135517968911226],NA,NA,earthquake_local,DAG.SC_20200902031000_EV
SC,DAG,BH,32.591,-104.691704,1280,700,manual,0.1,59.19,2654.0000436753035,manual,0.18,NA,NA,0.25,31.7045,104.32533333333333,NA,139,NA,5,NA,2.27,ml,None,None,NA,104.5,160,[0 0 2.65205096966026],NA,NA,earthquake_local,DAG.SC_20200902032100_EV
SC,DAG,BH,32.591,-104.691704,1280,700,manual,0.29,69.54,2712.0000449714717,manual,0.27,NA,NA,0.25,31.9935,103.73,NA,242,NA,5,NA,1.75,ml,None,None,NA,112.2,126,[0 0 1.02528983377522],NA,NA,earthquake_local,DAG.SC_20200902035400_EV
SC,DAG,BH,32.591,-104.691704,1280,700,manual,0.34,48.93,2727.0000453069806,manual,0.66,NA,NA,0.25,31.678,104.17466666666667,NA,165,NA,5,NA,1.92,ml,None,None,NA,112.7,154,[0 0 3.43099081399721],NA,NA,earthquake_local,DAG.SC_20200902041800_EV
SC,DAG,BH,32.591,-104.691704,1280,700,manual,0.1,38.87,2583.00004208833,manual,0.21,NA,NA,0.25,31.676166666666667,104.52433333333333,NA,153,NA,5,NA,1.67,ml,None,None,NA,102.9,171,[0 0 2.16066767690333],NA,NA,earthquake_local,DAG.SC_20200902042000_EV
SC,DAG,BH,32.591,-104.691704,1280,700,manual,0.15,11.16,2595.0000423565507,manual,0.19,NA,NA,0.25,31.655333333333335,104.50133333333333,NA,155,NA,5,NA,1.89,ml,None,None,NA,105.5,170,[0 0 3.50488644885944],NA,NA,earthquake_local,DAG.SC_20200902042200_EV
SC,DAG,BH,32.591,-104.691704,1280,700,manual,0.06,77.12,2614.000042781234,manual,0.11,NA,NA,0.25,31.754,104.09733333333334,NA,114,NA,5,NA,2.56,ml,None,None,NA,108.8,149,[0 0 6.04742514023738],NA,NA,earthquake_local,DAG.SC_20200902050800_EV
SC,DAG,BH,32.591,-104.691704,1280,700,manual,0.06,53.69,2754.0000459104776,manual,0.11,NA,NA,0.25,31.750833333333333,104.086,NA,113,NA,5,NA,2.65,ml,None,None,NA,109.6,148,[0 0 3.61889407843521],NA,NA,earthquake_local,DAG.SC_20200902051800_EV
SC,DAG,BH,32.591,-104.691704,1280,700,manual,0.07,69.36,2749.000045798719,manual,0.13,NA,NA,0.25,31.744333333333334,104.05483333333333,NA,131,NA,5,NA,1.95,ml,None,None,NA,111.8,147,[0 0 2.50739507186117],NA,NA,earthquake_local,DAG.SC_20200902065600_EV
SC,DAG,BH,32.591,-104.691704,1280,700,manual,0.1,59.64,2641.000043384731,manual,0.19,NA,NA,0.25,31.6965,104.15066666666667,NA,126,NA,5,NA,1.7,ml,None,None,NA,111.9,152,[0 0 5.24869284805919],NA,NA,earthquake_local,DAG.SC_20200902071900_EV
SC,DAG,BH,32.591,-104.691704,1280,700,manual,0.06,74.89,3534.000063345302,manual,0.17,NA,NA,0.25,31.439333333333334,103.39216666666667,NA,159,NA,5,NA,2.31,ml,None,None,NA,177.5,136,[0 0 4.96204806529353],NA,NA,earthquake_local,DAG.SC_20200902081200_EV
SC,DAG,BH,32.591,-104.691704,1280,700,manual,0.12,61.12,2685.0000443682075,manual,0.25,NA,NA,0.25,31.670833333333334,104.46666666666667,NA,151,NA,5,NA,1.96,ml,None,None,NA,104.5,168,[0 0 9.29389818063701],NA,NA,earthquake_local,DAG.SC_20200902083000_EV
SC,DAG,BH,32.591,-104.691704,1280,700,manual,0.12,41.89,2520.00004068017,manual,0.23,NA,NA,0.25,31.704,104.525,NA,148,NA,5,NA,1.83,ml,None,None,NA,99.8,170,[0 0 5.86851651125258],NA,NA,earthquake_local,DAG.SC_20200902083600_EV
SC,DAG,BH,32.591,-104.691704,1280,700,manual,0.07,61.26,2747.0000457540154,manual,0.13,NA,NA,0.25,31.758,104.08616666666667,NA,113,NA,5,NA,1.97,ml,None,None,NA,108.9,148,[0 0 5.25202754996767],NA,NA,earthquake_local,DAG.SC_20200902085000_EV
SC,DAG,BH,32.591,-104.691704,1280,700,manual,0.08,47.08,2821.0000474080443,manual,0.14,NA,NA,0.25,31.719,104.0805,NA,116,NA,5,NA,2.05,ml,None,None,NA,112.9,149,[0 0 5.79275355616582],NA,NA,earthquake_local,DAG.SC_20200902114500_EV
SC,DAG,BH,32.591,-104.691704,1280,700,manual,0.08,64.31,2534.0000409940258,manual,0.16,NA,NA,0.25,31.696833333333334,104.514,NA,149,NA,5,NA,2.29,ml,None,None,NA,100.8,170,[0 0 7.70781019002932],NA,NA,earthquake_local,DAG.SC_20200902115100_EV
SC,DAG,BH,32.591,-104.691704,1280,700,manual,0.09,35.13,2807.00004709512,manual,0.16,NA,NA,0.25,31.6445,104.27433333333333,NA,145,NA,5,NA,2.18,ml,None,None,NA,112.5,159,[0 0 6.75526741491212],NA,NA,earthquake_local,DAG.SC_20200902121600_EV
SC,DAG,BH,32.591,-104.691704,1280,700,manual,0.1,30.51,2749.000045798719,manual,0.1,NA,NA,0.25,31.764666666666667,104.04433333333333,NA,140,NA,5,NA,2.29,ml,None,None,NA,110.4,146,[0 0 0.952469376144278],NA,NA,earthquake_local,DAG.SC_20200902132600_EV
SC,DAG,BH,32.591,-104.691704,1280,700,manual,0.09,74.47,2745.000045709312,manual,0.16,NA,NA,0.25,31.754666666666665,104.05233333333334,NA,109,NA,5,NA,1.95,ml,None,None,NA,111,147,[0 0 2.27830487566155],NA,NA,earthquake_local,DAG.SC_20200902134900_EV
SC,DAG,BH,32.591,-104.691704,1280,700,manual,0.07,51.29,2726.000045284629,manual,0.12,NA,NA,0.25,31.749666666666666,104.08316666666667,NA,113,NA,5,NA,2.19,ml,None,None,NA,109.9,148,[0 0 1.25941678037821],NA,NA,earthquake_local,DAG.SC_20200902140400_EV
SC,DAG,BH,32.591,-104.691704,1280,700,manual,0.06,37.1,2293.0000356063247,manual,0.04,NA,NA,0.25,31.768,104.10533333333333,NA,113,NA,5,NA,2.61,ml,None,None,NA,107,149,[0 0 6.9583138587197],NA,NA,earthquake_local,DAG.SC_20200902141300_EV
SC,DAG,BH,32.591,-104.691704,1280,700,manual,0.07,86.8,2678.0000442117453,manual,0.13,NA,NA,0.25,31.739,104.07433333333333,NA,113,NA,5,NA,2.08,ml,None,None,NA,111.3,148,[0 0 3.71878826619409],NA,NA,earthquake_local,DAG.SC_20200902160000_EV
SC,DAG,BH,32.591,-104.691704,1280,700,manual,0.07,86.21,2614.0000427803025,manual,0.16,NA,NA,0.25,31.983666666666668,103.78783333333334,NA,142,NA,5,NA,2.11,ml,None,None,NA,108.6,128,[0 0 6.73780134886215],NA,NA,earthquake_local,DAG.SC_20200902163100_EV
SC,DAG,BH,32.591,-104.691704,1280,700,manual,0.07,53.93,2649.0000435635448,manual,0.13,NA,NA,0.25,31.709833333333332,104.3605,NA,140,NA,5,NA,2.13,ml,None,None,NA,102.9,162,[0 0 5.09919841816542],NA,NA,earthquake_local,DAG.SC_20200902165300_EV
SC,DAG,BH,32.591,-104.691704,1280,700,manual,0.09,65.56,2575.000041909516,manual,0.17,NA,NA,0.25,31.706666666666667,104.354,NA,140,NA,5,NA,2.04,ml,None,None,NA,103.4,162,[0 0 5.53791333687408],NA,NA,earthquake_local,DAG.SC_20200902174900_EV
SC,DAG,BH,32.591,-104.691704,1280,700,manual,0.1,50.29,2790.0000467151403,manual,0.1,NA,NA,0.25,31.618166666666667,104.20383333333334,NA,143,NA,5,NA,2.06,ml,None,None,NA,117.7,157,[0 0 -1.0158761374855],NA,NA,earthquake_local,DAG.SC_20200902180300_EV
SC,DAG,BH,32.591,-104.691704,1280,700,manual,0.24,39.83,2787.000046647154,manual,0.3,NA,NA,0.25,31.613833333333332,104.15333333333334,NA,292,NA,5,NA,1.97,ml,None,None,NA,120.1,155,[0 0 3.96344272372486],NA,NA,earthquake_local,DAG.SC_20200902194000_EV
SC,DAG,BH,32.591,-104.691704,1280,700,manual,0.11,62.69,2770.000046267174,manual,0.2,NA,NA,0.25,31.625666666666667,104.1765,NA,149,NA,5,NA,2.03,ml,None,None,NA,117.9,155,[0 0 1.75060301503132],NA,NA,earthquake_local,DAG.SC_20200902194200_EV
SC,DAG,BH,32.591,-104.691704,1280,700,manual,0.07,69.93,2722.000045195222,manual,0.13,NA,NA,0.25,31.745333333333335,104.084,NA,114,NA,5,NA,2.1,ml,None,None,NA,110.2,148,[0 0 4.50632191358553],NA,NA,earthquake_local,DAG.SC_20200902204500_EV
SC,DAG,BH,32.591,-104.691704,1280,700,manual,0.07,49.84,2951.000050314702,manual,0.13,NA,NA,0.25,31.629666666666665,103.928,NA,105,NA,5,NA,1.92,ml,None,None,NA,129.1,146,[0 0 2.91321740525174],NA,NA,earthquake_local,DAG.SC_20200902213400_EV
SC,DAG,BH,32.591,-104.691704,1280,700,manual,0.15,81.94,2804.0000470271334,manual,0.25,NA,NA,0.25,31.632666666666665,104.1125,NA,162,NA,5,NA,2.02,ml,None,None,NA,119.9,152,[0 0 11.0836747125372],NA,NA,earthquake_local,DAG.SC_20200902215400_EV
SC,DAG,BH,32.591,-104.691704,1280,700,manual,0.06,53.53,2721.00004517287,manual,0.11,NA,NA,0.25,31.735333333333333,104.096,NA,116,NA,5,NA,2.31,ml,None,None,NA,110.6,149,[0 0 -7.44890559541379],NA,NA,earthquake_local,DAG.SC_20200902221700_EV
SC,DAG,BH,32.591,-104.691704,1280,700,manual,0.13,70.64,2536.000041037798,manual,0.72,NA,NA,0.25,31.749666666666666,104.52933333333333,NA,249,NA,5,NA,2.2,ml,None,None,NA,94.7,170,[0 0 5.50391608561802],NA,NA,earthquake_local,DAG.SC_20200902234500_EV
SC,GDL2,BH,32.200802,-104.363701,1211,700,manual,0.36,61.84,2195.000033415854,manual,0.63,NA,NA,0.25,31.6535,104.05766666666666,NA,175,NA,5,NA,1.64,ml,None,None,NA,67.4,154,[0 0 12.8064400136595],NA,NA,earthquake_local,GDL2.SC_20200901013500_EV
SC,GDL2,BH,32.200802,-104.363701,1211,700,manual,0.18,40.8,2277.000035248697,manual,0.4,NA,NA,0.25,31.5965,104.12483333333333,NA,139,NA,5,NA,2.21,ml,None,None,NA,70.9,161,[0 0 16.9098765884921],NA,NA,earthquake_local,GDL2.SC_20200901032600_EV
SC,GDL2,BH,32.200802,-104.363701,1211,700,manual,0.16,49.75,2026.0000296384096,manual,0.31,NA,NA,0.25,31.748833333333334,104.29816666666666,NA,143,NA,5,NA,1.85,ml,None,None,NA,50.5,172,[0 0 23.7782909597485],NA,NA,earthquake_local,GDL2.SC_20200901040500_EV
SC,GDL2,BH,32.200802,-104.363701,1211,700,manual,0.09,72.57,2081.0000308677554,manual,0.16,NA,NA,0.25,31.749333333333333,104.08533333333334,NA,113,NA,5,NA,2.17,ml,None,None,NA,56.7,152,[0 0 25.8520693510556],NA,NA,earthquake_local,GDL2.SC_20200901060500_EV
SC,GDL2,BH,32.200802,-104.363701,1211,700,manual,0.17,44.57,2266.0000350028276,manual,0.59,NA,NA,0.25,31.599166666666665,104.17616666666666,NA,204,NA,5,NA,1.97,ml,None,None,NA,69.2,165,[0 0 12.6213508086302],NA,NA,earthquake_local,GDL2.SC_20200901073300_EV
SC,GDL2,BH,32.200802,-104.363701,1211,700,manual,0.08,48.3,2476.000039697159,manual,0.18,NA,NA,0.25,31.615,104.29433333333333,NA,151,NA,5,NA,2.36,ml,None,None,NA,65.3,174,[0 0 20.4217621917725],NA,NA,earthquake_local,GDL2.SC_20200901074800_EV
SC,GDL2,BH,32.200802,-104.363701,1211,700,manual,0.21,75.08,2461.0000393609516,manual,0.46,NA,NA,0.25,31.622166666666665,104.29533333333333,NA,150,NA,5,NA,2.29,ml,None,None,NA,64.5,174,[0 0 19.8652106841384],NA,NA,earthquake_local,GDL2.SC_20200901075300_EV
SC,GDL2,BH,32.200802,-104.363701,1211,700,manual,0.55,76.62,2060.000030397903,manual,0.83,NA,NA,0.25,31.934333333333335,103.92216666666667,NA,347,NA,5,NA,1.68,ml,None,None,NA,51,125,[0 0 2.03359189592627],NA,NA,earthquake_local,GDL2.SC_20200901092400_EV
SC,GDL2,BH,32.200802,-104.363701,1211,700,manual,0.1,29.64,2162.000032678712,manual,0.17,NA,NA,0.25,31.755166666666668,104.05983333333333,NA,110,NA,5,NA,1.8,ml,None,None,NA,57.3,150,[0 0 4.23463844258273],NA,NA,earthquake_local,GDL2.SC_20200901095900_EV
SC,GDL2,BH,32.200802,-104.363701,1211,700,manual,0.09,46.34,2065.0000305101275,manual,0.15,NA,NA,0.25,31.7275,104.1175,NA,119,NA,5,NA,2.2,ml,None,None,NA,57.5,156,[0 0 3.65164164613021],NA,NA,earthquake_local,GDL2.SC_20200901103700_EV
SC,GDL2,BH,32.200802,-104.363701,1211,700,manual,0.3,46.66,2195.000033415854,manual,0.59,NA,NA,0.25,31.6795,104.16033333333333,NA,159,NA,5,NA,1.71,ml,None,None,NA,61,161,[0 0 5.94155859246019],NA,NA,earthquake_local,GDL2.SC_20200901115800_EV
SC,GDL2,BH,32.200802,-104.363701,1211,700,manual,0.1,52.23,2147.0000323429704,manual,0.16,NA,NA,0.25,31.66433333333333,104.18716666666667,NA,134,NA,5,NA,2.13,ml,None,None,NA,61.9,164,[0 0 0.624839750992511],NA,NA,earthquake_local,GDL2.SC_20200901131900_EV
SC,GDL2,BH,32.200802,-104.363701,1211,700,manual,0.15,63.59,2036.000029861927,manual,0.32,NA,NA,0.25,31.729,104.53916666666667,NA,145,NA,5,NA,1.99,ml,None,None,NA,54.6,197,[0 0 3.52780693224926],NA,NA,earthquake_local,GDL2.SC_20200901135800_EV
SC,GDL2,BH,32.200802,-104.363701,1211,700,manual,0.46,28.98,2135.0000320747495,manual,0.34,NA,NA,0.5,31.7375,104.27583333333334,NA,277,NA,5,NA,1.81,ml,None,None,NA,52.1,170,[0 0 3.47106109079386],NA,NA,earthquake_local,GDL2.SC_20200901151300_EV
SC,GDL2,BH,32.200802,-104.363701,1211,700,manual,0.2,38.27,2313.000036054291,manual,0.41,NA,NA,0.25,31.691333333333333,104.22283333333333,NA,150,NA,5,NA,1.76,ml,None,None,NA,58.1,166,[0 0 3.85526948452843],NA,NA,earthquake_local,GDL2.SC_20200901154500_EV
SC,GDL2,BH,32.200802,-104.363701,1211,700,manual,0.08,60.13,2211.000033773482,manual,0.18,NA,NA,0.25,31.642333333333333,104.4815,NA,156,NA,5,NA,2.01,ml,None,None,NA,62.7,189,[0 0 2.93191983366105],NA,NA,earthquake_local,GDL2.SC_20200901185100_EV
SC,GDL2,BH,32.200802,-104.363701,1211,700,manual,0.14,55.32,2208.0000337054953,manual,0.33,NA,NA,0.25,31.66583333333333,104.45166666666667,NA,151,NA,5,NA,2.07,ml,None,None,NA,59.8,187,[0 0 2.83720741089717],NA,NA,earthquake_local,GDL2.SC_20200901195100_EV
SC,GDL2,BH,32.200802,-104.363701,1211,700,manual,0.11,26.19,1969.0000283652917,manual,0.3,NA,NA,0.5,31.9615,103.88616666666667,NA,177,NA,5,NA,1.77,ml,None,None,NA,52.2,121,[0 0 5.16315516013351],NA,NA,earthquake_local,GDL2.SC_20200901225500_EV
SC,GDL2,BH,32.200802,-104.363701,1211,700,manual,0.15,81.31,2080.0000308454037,manual,0.32,NA,NA,0.25,31.74266666666667,104.51666666666667,NA,142,NA,5,NA,1.94,ml,None,None,NA,52.6,195,[0 0 4.12877029563773],NA,NA,earthquake_local,GDL2.SC_20200901225800_EV
SC,GDL2,BH,32.200802,-104.363701,1211,700,manual,0.2,92.07,2062.000030442141,manual,0.44,NA,NA,0.25,31.701166666666666,104.31766666666667,NA,139,NA,5,NA,2.19,ml,None,None,NA,55.6,175,[0 0 2.56810813437117],NA,NA,earthquake_local,GDL2.SC_20200901230400_EV
SC,GDL2,BH,32.200802,-104.363701,1211,700,manual,0.16,66.89,2135.0000320747495,manual,0.32,NA,NA,0.25,31.752666666666666,104.0665,NA,111,NA,5,NA,1.71,ml,None,None,NA,57.2,150,[0 0 2.73351944000671],NA,NA,earthquake_local,GDL2.SC_20200901231900_EV
SC,GDL2,BH,32.200802,-104.363701,1211,700,manual,0.11,81.32,2130.000031961128,manual,0.23,NA,NA,0.25,31.728666666666665,104.38766666666666,NA,139,NA,5,NA,2.13,ml,None,None,NA,52.3,182,[0 0 2.0799582671555],NA,NA,earthquake_local,GDL2.SC_20200901234300_EV
SC,GDL2,BH,32.200802,-104.363701,1211,700,manual,0.15,45.58,2121.000031761825,manual,0.34,NA,NA,0.25,31.721166666666665,104.40516666666667,NA,141,NA,5,NA,2.2,ml,None,None,NA,53.2,183,[0 0 9.94611649579026],NA,NA,earthquake_local,GDL2.SC_20200902005900_EV
SC,GDL2,BH,32.200802,-104.363701,1211,700,manual,0.08,80.3,2093.00003113586,manual,0.14,NA,NA,0.25,31.741,104.0895,NA,115,NA,5,NA,2.27,ml,None,None,NA,57.3,153,[0 0 0.922809310192327],NA,NA,earthquake_local,GDL2.SC_20200902013500_EV
SC,GDL2,BH,32.200802,-104.363701,1211,700,manual,0.22,45.19,2117.000031672418,manual,0.43,NA,NA,0.25,31.7815,104.03083333333333,NA,153,NA,5,NA,2.19,ml,None,None,NA,56.2,146,[0 0 4.15291565136322],NA,NA,earthquake_local,GDL2.SC_20200902014900_EV
SC,GDL2,BH,32.200802,-104.363701,1211,700,manual,0.22,24.18,2348.000036835554,manual,0.43,NA,NA,0.25,31.621,104.14966666666666,NA,153,NA,5,NA,1.9,ml,None,None,NA,67.5,162,[0 0 8.21058944739232],NA,NA,earthquake_local,GDL2.SC_20200902023700_EV
SC,GDL2,BH,32.200802,-104.363701,1211,700,manual,0.15,28.31,2012.0000293254852,manual,0.32,NA,NA,0.25,31.740833333333335,104.36416666666666,NA,136,NA,5,NA,2.24,ml,None,None,NA,51,179,[0 0 3.81643963736061],NA,NA,earthquake_local,GDL2.SC_20200902025400_EV
SC,GDL2,BH,32.200802,-104.363701,1211,700,manual,0.34,30.33,2120.0000317394733,manual,0.33,NA,NA,0.5,31.702166666666667,104.3025,NA,276,NA,5,NA,2.23,ml,None,None,NA,55.6,173,[0 0 6.32076024498026],NA,NA,earthquake_local,GDL2.SC_20200902031000_EV
SC,GDL2,BH,32.200802,-104.363701,1211,700,manual,0.15,51.74,2123.0000318065286,manual,0.32,NA,NA,0.25,31.7045,104.32533333333333,NA,139,NA,5,NA,2.27,ml,None,None,NA,55.2,176,[0 0 2.78219568308511],NA,NA,earthquake_local,GDL2.SC_20200902032100_EV
SC,GDL2,BH,32.200802,-104.363701,1211,700,manual,0.11,63.97,1850.000025704503,manual,0.23,NA,NA,0.5,31.9935,103.73,NA,242,NA,5,NA,1.75,ml,None,None,NA,63.7,111,[0 0 4.46656452204819],NA,NA,earthquake_local,GDL2.SC_20200902035400_EV
SC,GDL2,BH,32.200802,-104.363701,1211,700,manual,0.15,32.36,2141.00003220886,manual,0.33,NA,NA,0.25,31.676166666666667,104.52433333333333,NA,153,NA,5,NA,1.67,ml,None,None,NA,59.9,194,[0 0 -1.06432070852364],NA,NA,earthquake_local,GDL2.SC_20200902042000_EV
SC,GDL2,BH,32.200802,-104.363701,1211,700,manual,0.25,4.79,2107.0000314489007,manual,0.26,NA,NA,0.25,31.655333333333335,104.50133333333333,NA,155,NA,5,NA,1.89,ml,None,None,NA,61.7,191,[0 0 3.29662305383643],NA,NA,earthquake_local,GDL2.SC_20200902042200_EV
SC,GDL2,BH,32.200802,-104.363701,1211,700,manual,0.08,68.86,2087.000031001633,manual,0.15,NA,NA,0.25,31.754,104.09733333333334,NA,114,NA,5,NA,2.56,ml,None,None,NA,55.7,153,[0 0 4.44634697487769],NA,NA,earthquake_local,GDL2.SC_20200902050800_EV
SC,GDL2,BH,32.200802,-104.363701,1211,700,manual,0.08,45.35,2109.000031493604,manual,0.15,NA,NA,0.25,31.750833333333333,104.086,NA,113,NA,5,NA,2.65,ml,None,None,NA,56.5,152,[0 0 3.07229691120379],NA,NA,earthquake_local,GDL2.SC_20200902051800_EV
SC,GDL2,BH,32.200802,-104.363701,1211,700,manual,0.11,79.95,2093.0000311359763,manual,0.23,NA,NA,0.25,31.671,104.21433333333333,NA,136,NA,5,NA,1.02,ml,None,None,NA,60.5,166,[0 0 4.75153647381237],NA,NA,earthquake_local,GDL2.SC_20200902053800_EV
SC,GDL2,BH,32.200802,-104.363701,1211,700,manual,0.09,61.16,2122.000031784177,manual,0.18,NA,NA,0.25,31.744333333333334,104.05483333333333,NA,131,NA,5,NA,1.95,ml,None,None,NA,58.5,150,[0 0 2.86839202901792],NA,NA,earthquake_local,GDL2.SC_20200902065600_EV
SC,GDL2,BH,32.200802,-104.363701,1211,700,manual,0.09,90.23,2098.000031247735,manual,0.15,NA,NA,0.25,31.761,104.081,NA,112,NA,5,NA,2.46,ml,None,None,NA,55.7,151,[0 0 4.46448173665116],NA,NA,earthquake_local,GDL2.SC_20200902070200_EV
SC,GDL2,BH,32.200802,-104.363701,1211,700,manual,0.14,50.05,2098.000031247735,manual,0.28,NA,NA,0.25,31.6965,104.15066666666667,NA,126,NA,5,NA,1.7,ml,None,None,NA,59.6,160,[0 0 9.32368474265803],NA,NA,earthquake_local,GDL2.SC_20200902071900_EV
SC,GDL2,BH,32.200802,-104.363701,1211,700,manual,0.32,66.54,3528.00006321026,manual,0.5,NA,NA,0.25,31.054666666666666,103.17066666666666,NA,329,NA,5,NA,2.25,ml,None,None,NA,170.4,138,[0 0 3.419869285009],NA,NA,earthquake_local,GDL2.SC_20200902074300_EV
SC,GDL2,BH,32.200802,-104.363701,1211,700,manual,0.08,66.4,2884.000048816204,manual,0.21,NA,NA,0.25,31.439333333333334,103.39216666666667,NA,159,NA,5,NA,2.31,ml,None,None,NA,124.9,133,[0 0 5.05237237758514],NA,NA,earthquake_local,GDL2.SC_20200902081200_EV
SC,GDL2,BH,32.200802,-104.363701,1211,700,manual,0.18,53.75,2250.0000346452,manual,0.4,NA,NA,0.25,31.670833333333334,104.46666666666667,NA,151,NA,5,NA,1.96,ml,None,None,NA,59.4,189,[0 0 1.24656987680793],NA,NA,earthquake_local,GDL2.SC_20200902083000_EV
SC,GDL2,BH,32.200802,-104.363701,1211,700,manual,0.17,35.24,2146.0000323206186,manual,0.34,NA,NA,0.25,31.704,104.525,NA,148,NA,5,NA,1.83,ml,None,None,NA,56.9,195,[0 0 4.01517928752604],NA,NA,earthquake_local,GDL2.SC_20200902083600_EV
SC,GDL2,BH,32.200802,-104.363701,1211,700,manual,0.1,52.98,2087.000031001866,manual,0.17,NA,NA,0.25,31.758,104.08616666666667,NA,113,NA,5,NA,1.97,ml,None,None,NA,55.8,152,[0 0 2.93198229128934],NA,NA,earthquake_local,GDL2.SC_20200902085000_EV
SC,GDL2,BH,32.200802,-104.363701,1211,700,manual,0.11,80.84,2109.000031493604,manual,0.21,NA,NA,0.25,31.758,104.05883333333334,NA,130,NA,5,NA,2.09,ml,None,None,NA,57,149,[0 0 3.36213399273177],NA,NA,earthquake_local,GDL2.SC_20200902095400_EV
SC,GDL2,BH,32.200802,-104.363701,1211,700,manual,0.1,79.27,2297.0000356957316,manual,0.21,NA,NA,0.25,31.6895,104.39833333333333,NA,145,NA,5,NA,2.05,ml,None,None,NA,56.7,183,[0 0 5.41450781173817],NA,NA,earthquake_local,GDL2.SC_20200902101300_EV
SC,GDL2,BH,32.200802,-104.363701,1211,700,manual,0.15,84.53,2099.0000312700868,manual,0.31,NA,NA,0.25,31.675833333333333,104.2695,NA,140,NA,5,NA,1.96,ml,None,None,NA,58.9,171,[0 0 2.86787483301567],NA,NA,earthquake_local,GDL2.SC_20200902103300_EV
SC,GDL2,BH,32.200802,-104.363701,1211,700,manual,0.11,38.49,2114.000031605363,manual,0.2,NA,NA,0.25,31.719,104.0805,NA,116,NA,5,NA,2.05,ml,None,None,NA,59.9,153,[0 0 1.95450343841898],NA,NA,earthquake_local,GDL2.SC_20200902114500_EV
SC,GDL2,BH,32.200802,-104.363701,1211,700,manual,0.09,57.57,2120.000031738542,manual,0.2,NA,NA,0.25,31.696833333333334,104.514,NA,149,NA,5,NA,2.29,ml,None,None,NA,57.4,194,[0 0 -3.54186943489964],NA,NA,earthquake_local,GDL2.SC_20200902115100_EV
SC,GDL2,BH,32.200802,-104.363701,1211,700,manual,0.11,27.35,2268.000035047531,manual,0.11,NA,NA,0.25,31.6445,104.27433333333333,NA,145,NA,5,NA,2.18,ml,None,None,NA,62.3,172,[0 0 4.50334985800518],NA,NA,earthquake_local,GDL2.SC_20200902121600_EV
SC,GDL2,BH,32.200802,-104.363701,1211,700,manual,0.1,67.91,2109.000031493604,manual,0.18,NA,NA,0.25,31.752,104.08066666666667,NA,113,NA,5,NA,2.2,ml,None,None,NA,56.6,151,[0 0 2.88862457846327],NA,NA,earthquake_local,GDL2.SC_20200902131000_EV
SC,GDL2,BH,32.200802,-104.363701,1211,700,manual,0.15,22.26,2101.0000313147902,manual,0.28,NA,NA,0.25,31.764666666666667,104.04433333333333,NA,140,NA,5,NA,2.29,ml,None,None,NA,57.1,148,[0 0 8.89751587670552],NA,NA,earthquake_local,GDL2.SC_20200902132600_EV
SC,GDL2,BH,32.200802,-104.363701,1211,700,manual,0.13,65.56,2229.000034175813,manual,0.24,NA,NA,0.25,31.754666666666665,104.05233333333334,NA,109,NA,5,NA,1.95,ml,None,None,NA,57.7,149,[0 0 2.05751008765094],NA,NA,earthquake_local,GDL2.SC_20200902134900_EV
SC,GDL2,BH,32.200802,-104.363701,1211,700,manual,0.09,43.02,2094.000031158328,manual,0.16,NA,NA,0.25,31.749666666666666,104.08316666666667,NA,113,NA,5,NA,2.19,ml,None,None,NA,56.7,152,[0 0 2.47204884859645],NA,NA,earthquake_local,GDL2.SC_20200902140400_EV
SC,GDL2,BH,32.200802,-104.363701,1211,700,manual,0.09,28.67,2104.0000313818455,manual,0.14,NA,NA,0.25,31.768,104.10533333333333,NA,113,NA,5,NA,2.61,ml,None,None,NA,53.9,153,[0 0 2.40511798522446],NA,NA,earthquake_local,GDL2.SC_20200902141300_EV
SC,GDL2,BH,32.200802,-104.363701,1211,700,manual,0.09,77.95,2125.000031851232,manual,0.17,NA,NA,0.25,31.739,104.07433333333333,NA,113,NA,5,NA,2.08,ml,None,None,NA,58.2,152,[0 0 4.39553641911236],NA,NA,earthquake_local,GDL2.SC_20200902160000_EV
SC,GDL2,BH,32.200802,-104.363701,1211,700,manual,0.11,77.7,2113.0000315839425,manual,0.3,NA,NA,0.25,31.983666666666668,103.78783333333334,NA,142,NA,5,NA,2.11,ml,None,None,NA,59.2,114,[0 0 4.50365424032549],NA,NA,earthquake_local,GDL2.SC_20200902163100_EV
SC,GDL2,BH,32.200802,-104.363701,1211,700,manual,0.08,46.37,2107.0000314489007,manual,0.16,NA,NA,0.25,31.709833333333332,104.3605,NA,140,NA,5,NA,2.13,ml,None,None,NA,54.4,179,[0 0 3.09524171833396],NA,NA,earthquake_local,GDL2.SC_20200902165300_EV
SC,GDL2,BH,32.200802,-104.363701,1211,700,manual,0.13,57.21,2209.0000337287784,manual,0.27,NA,NA,0.25,31.706666666666667,104.354,NA,140,NA,5,NA,2.04,ml,None,None,NA,54.8,178,[0 0 4.23146135538403],NA,NA,earthquake_local,GDL2.SC_20200902174900_EV
SC,GDL2,BH,32.200802,-104.363701,1211,700,manual,0.13,41.49,2241.000034444034,manual,0.26,NA,NA,0.25,31.618166666666667,104.20383333333334,NA,143,NA,5,NA,2.06,ml,None,None,NA,66.5,166,[0 0 5.68252736375572],NA,NA,earthquake_local,GDL2.SC_20200902180300_EV
SC,GDL2,BH,32.200802,-104.363701,1211,700,manual,0.23,29.89,2395.0000378862023,manual,0.37,NA,NA,0.5,31.613833333333332,104.15333333333334,NA,292,NA,5,NA,1.97,ml,None,None,NA,68.2,163,[0 0 3.90601809726251],NA,NA,earthquake_local,GDL2.SC_20200902194000_EV
SC,GDL2,BH,32.200802,-104.363701,1211,700,manual,0.1,61.69,2118.0000316938385,manual,0.18,NA,NA,0.25,31.745333333333335,104.084,NA,114,NA,5,NA,2.1,ml,None,None,NA,57.1,152,[0 0 2.70404207925009],NA,NA,earthquake_local,GDL2.SC_20200902204500_EV
SC,GDL2,BH,32.200802,-104.363701,1211,700,manual,0.09,41.4,2333.0000365003943,manual,0.18,NA,NA,0.25,31.629666666666665,103.928,NA,105,NA,5,NA,1.92,ml,None,None,NA,75.7,147,[0 0 3.6787403810094],NA,NA,earthquake_local,GDL2.SC_20200902213400_EV
SC,GDL2,BH,32.200802,-104.363701,1211,700,manual,0.2,86.49,2060.0000303974375,manual,0.29,NA,NA,0.25,31.776333333333334,104.029,NA,190,NA,5,NA,2.15,ml,None,None,NA,56.8,146,[0 0 3.13658041025902],NA,NA,earthquake_local,GDL2.SC_20200902214900_EV
SC,GDL2,BH,32.200802,-104.363701,1211,700,manual,0.09,45.2,2074.000030711293,manual,0.14,NA,NA,0.25,31.735333333333333,104.096,NA,116,NA,5,NA,2.31,ml,None,None,NA,57.6,154,[0 0 4.34460933071442],NA,NA,earthquake_local,GDL2.SC_20200902221700_EV
SC,GDL2,BH,32.200802,-104.363701,1211,700,manual,0.09,87.38,2106.0000314256176,manual,0.15,NA,NA,0.25,31.729333333333333,104.08566666666667,NA,116,NA,5,NA,2.23,ml,None,None,NA,58.6,153,[0 0 3.25858003673534],NA,NA,earthquake_local,GDL2.SC_20200902230600_EV
SC,GDL2,BH,32.200802,-104.363701,1211,700,manual,0.46,64.13,2076.0000307559967,manual,0.4,NA,NA,0.25,31.749666666666666,104.52933333333333,NA,249,NA,5,NA,2.2,ml,None,None,NA,52.2,197,[0 0 5.44551886523686],NA,NA,earthquake_local,GDL2.SC_20200902234500_EV
SC,HTMS,BH,32.472599,-103.6343,1192,700,manual,0.08,36.37,2469.0000395397656,manual,0.2,NA,NA,0.25,31.755166666666668,104.05983333333333,NA,110,NA,5,NA,1.8,ml,None,None,NA,88.4,206,[0 0 10.6298830518057],NA,NA,earthquake_local,HTMS.SC_20200901095900_EV
SC,HTMS,BH,32.472599,-103.6343,1192,700,manual,0.03,87.26,2532.000040948391,manual,0.05,NA,NA,0.25,31.741,104.0895,NA,115,NA,5,NA,2.27,ml,None,None,NA,91,207,[0 0 4.4942525205865],NA,NA,earthquake_local,HTMS.SC_20200902013500_EV
SC,HTMS,BH,32.472599,-103.6343,1192,700,manual,0.03,75.77,2430.0000386682805,manual,0.08,NA,NA,0.25,31.754,104.09733333333334,NA,114,NA,5,NA,2.56,ml,None,None,NA,90.1,208,[0 0 2.73100454822043],NA,NA,earthquake_local,HTMS.SC_20200902050800_EV
SC,HTMS,BH,32.472599,-103.6343,1192,700,manual,0.14,67.52,2455.000039227307,manual,0.3,NA,NA,0.25,31.744333333333334,104.05483333333333,NA,131,NA,5,NA,1.95,ml,None,None,NA,89.3,205,[0 0 3.03057049340816],NA,NA,earthquake_local,HTMS.SC_20200902065600_EV
SC,HTMS,BH,32.472599,-103.6343,1192,700,manual,0.09,59.78,2414.0000383108854,manual,0.23,NA,NA,0.25,31.758,104.08616666666667,NA,113,NA,5,NA,1.97,ml,None,None,NA,89.2,207,[0 0 2.43496558776638],NA,NA,earthquake_local,HTMS.SC_20200902085000_EV
SC,HTMS,BH,32.472599,-103.6343,1192,700,manual,0.22,86.75,2516.0000405912288,manual,0.47,NA,NA,0.25,31.758,104.05883333333334,NA,130,NA,5,NA,2.09,ml,None,None,NA,88.1,206,[0 0 1.96215267346351],NA,NA,earthquake_local,HTMS.SC_20200902095400_EV
SC,HTMS,BH,32.472599,-103.6343,1192,700,manual,0.03,34.55,2499.0000402107835,manual,0.07,NA,NA,0.25,31.768,104.10533333333333,NA,113,NA,5,NA,2.61,ml,None,None,NA,89.1,209,[0 0 7.37948344653572],NA,NA,earthquake_local,HTMS.SC_20200902141300_EV
SC,JAL,BH,32.20241,-103.22932,1020,700,manual,0.04,86.42,2558.0000415295362,manual,0.11,NA,NA,0.25,31.741,104.0895,NA,115,NA,5,NA,2.27,ml,None,None,NA,94.6,237,[0 0 3.73909279944843],NA,NA,earthquake_local,JAL.SC_20200902013500_EV
SC,JAL,BH,32.20241,-103.22932,1020,700,manual,0.05,75.29,2525.0000407919288,manual,0.1,NA,NA,0.25,31.754,104.09733333333334,NA,114,NA,5,NA,2.56,ml,None,None,NA,94.5,238,[0 0 9.12611234366506],NA,NA,earthquake_local,JAL.SC_20200902050800_EV
SC,JAL,BH,32.20241,-103.22932,1020,700,manual,0.04,51.72,2443.000038959086,manual,0.12,NA,NA,0.25,31.750833333333333,104.086,NA,113,NA,5,NA,2.65,ml,None,None,NA,93.8,238,[0 0 2.32750041654985],NA,NA,earthquake_local,JAL.SC_20200902051800_EV
SC,JAL,BH,32.20241,-103.22932,1020,700,manual,0.05,49.63,2456.0000392496586,manual,0.12,NA,NA,0.25,31.749666666666666,104.08316666666667,NA,113,NA,5,NA,2.19,ml,None,None,NA,93.6,238,[0 0 5.21548856631577],NA,NA,earthquake_local,JAL.SC_20200902140400_EV
SC,JAL,BH,32.20241,-103.22932,1020,700,manual,0.04,35.25,2521.000040702522,manual,0.09,NA,NA,0.25,31.768,104.10533333333333,NA,113,NA,5,NA,2.61,ml,None,None,NA,94.3,239,[0 0 8.51223712632734],NA,NA,earthquake_local,JAL.SC_20200902141300_EV
SC,JAL,BH,32.20241,-103.22932,1020,700,manual,0.05,50.31,2698.000044657849,manual,0.13,NA,NA,0.25,31.735333333333333,104.096,NA,116,NA,5,NA,2.31,ml,None,None,NA,95.4,237,[0 0 5.80366647059904],NA,NA,earthquake_local,JAL.SC_20200902221700_EV
TX,MNHN,BH,31.340231,-102.761414,750,700,manual,0.08,84.45,2940.000050067436,manual,0.09,NA,NA,0.25,31.749333333333333,104.08533333333334,NA,113,NA,5,NA,2.17,ml,None,None,NA,132.8,290,[0 0 16.1491334867714],NA,NA,earthquake_local,MNHN.TX_20200901060500_EV
TX,MNHN,BH,31.340231,-102.761414,750,700,manual,0.08,60.61,3242.000056817662,manual,0.09,NA,NA,0.25,31.615,104.29433333333333,NA,151,NA,5,NA,2.36,ml,None,None,NA,147.3,282,[0 0 15.7111864944439],NA,NA,earthquake_local,MNHN.TX_20200901074800_EV
TX,MNHN,BH,31.340231,-102.761414,750,700,manual,0.07,76,3436.0000611543655,manual,0.12,NA,NA,0.25,31.642333333333333,104.4815,NA,156,NA,5,NA,2.01,ml,None,None,NA,165.1,282,[0 0 17.3335137200775],NA,NA,earthquake_local,MNHN.TX_20200901185100_EV
TX,MNHN,BH,31.340231,-102.761414,750,700,manual,0.25,79.11,3039.000052280724,manual,0.28,NA,NA,0.25,31.752666666666666,104.0665,NA,111,NA,5,NA,1.71,ml,None,None,NA,131.2,290,[0 0 7.29068733272139],NA,NA,earthquake_local,MNHN.TX_20200901231900_EV
TX,MNHN,BH,31.340231,-102.761414,750,700,manual,0.12,62.43,3509.000062786101,manual,0.23,NA,NA,0.25,31.721166666666665,104.40516666666667,NA,141,NA,5,NA,2.2,ml,None,None,NA,160.3,285,[0 0 4.62579861976872],NA,NA,earthquake_local,MNHN.TX_20200902005900_EV
TX,MNHN,BH,31.340231,-102.761414,750,700,manual,0.09,80.97,3004.0000514981803,manual,0.09,NA,NA,0.25,31.754,104.09733333333334,NA,114,NA,5,NA,2.56,ml,None,None,NA,134,290,[0 0 10.9833432278198],NA,NA,earthquake_local,MNHN.TX_20200902050800_EV
TX,MNHN,BH,31.340231,-102.761414,750,700,manual,0.06,57.29,3126.0000542250928,manual,0.04,NA,NA,0.25,31.750833333333333,104.086,NA,113,NA,5,NA,2.65,ml,None,None,NA,132.9,290,[0 0 7.62831636038181],NA,NA,earthquake_local,MNHN.TX_20200902051800_EV
TX,MNHN,BH,31.340231,-102.761414,750,700,manual,0.11,50.49,2968.0000506937504,manual,0.19,NA,NA,0.25,31.719,104.0805,NA,116,NA,5,NA,2.05,ml,None,None,NA,131.2,289,[0 0 4.45350732432867],NA,NA,earthquake_local,MNHN.TX_20200902114500_EV
TX,MNHN,BH,31.340231,-102.761414,750,700,manual,0.09,75.82,3318.00005851686,manual,0.16,NA,NA,0.25,31.696833333333334,104.514,NA,149,NA,5,NA,2.29,ml,None,None,NA,169.5,284,[0 0 6.12591524739969],NA,NA,earthquake_local,MNHN.TX_20200902115100_EV
TX,MNHN,BH,31.340231,-102.761414,750,700,manual,0.09,80.2,3093.000053487718,manual,0.19,NA,NA,0.25,31.752,104.08066666666667,NA,113,NA,5,NA,2.2,ml,None,None,NA,132.5,290,[0 0 2.2403571478677],NA,NA,earthquake_local,MNHN.TX_20200902131000_EV
TX,MNHN,BH,31.340231,-102.761414,750,700,manual,0.3,34.14,3130.0000543147326,manual,0.22,NA,NA,0.25,31.764666666666667,104.04433333333333,NA,140,NA,5,NA,2.29,ml,None,None,NA,129.8,291,[0 0 3.351497309105],NA,NA,earthquake_local,MNHN.TX_20200902132600_EV
TX,MNHN,BH,31.340231,-102.761414,750,700,manual,0.17,78.78,2898.0000491291285,manual,0.35,NA,NA,0.25,31.754666666666665,104.05233333333334,NA,109,NA,5,NA,1.95,ml,None,None,NA,130.1,291,[0 0 0.883378127483077],NA,NA,earthquake_local,MNHN.TX_20200902134900_EV
TX,MNHN,BH,31.340231,-102.761414,750,700,manual,0.06,55.15,2961.000050537288,manual,0.12,NA,NA,0.25,31.749666666666666,104.08316666666667,NA,113,NA,5,NA,2.19,ml,None,None,NA,132.6,290,[0 0 0.361560755254255],NA,NA,earthquake_local,MNHN.TX_20200902140400_EV
TX,MNHN,BH,31.340231,-102.761414,750,700,manual,0.05,40.87,3110.0000538676977,manual,0.1,NA,NA,0.25,31.768,104.10533333333333,NA,113,NA,5,NA,2.61,ml,None,None,NA,135.3,291,[0 0 4.40366960922741],NA,NA,earthquake_local,MNHN.TX_20200902141300_EV
TX,MNHN,BH,31.340231,-102.761414,750,700,manual,0.09,62.19,3441.0000612661242,manual,0.16,NA,NA,0.25,31.709833333333332,104.3605,NA,140,NA,5,NA,2.13,ml,None,None,NA,155.9,285,[0 0 4.39089162006148],NA,NA,earthquake_local,MNHN.TX_20200902165300_EV
TX,MNHN,BH,31.340231,-102.761414,750,700,manual,0.19,74.2,2934.000049933791,manual,0.35,NA,NA,0.25,31.745333333333335,104.084,NA,114,NA,5,NA,2.1,ml,None,None,NA,132.5,290,[0 0 7.64399932908811],NA,NA,earthquake_local,MNHN.TX_20200902204500_EV
TX,MNHN,BH,31.340231,-102.761414,750,700,manual,0.06,57.25,3091.0000534430146,manual,0.11,NA,NA,0.25,31.735333333333333,104.096,NA,116,NA,5,NA,2.31,ml,None,None,NA,133.2,289,[0 0 3.6045195493638],NA,NA,earthquake_local,MNHN.TX_20200902221700_EV
TX,ODSA,BH,32.12009,-102.549133,943,700,manual,0.05,66.16,3467.000061847735,manual,0.08,NA,NA,0.25,31.615,104.29433333333333,NA,151,NA,5,NA,2.36,ml,None,None,NA,171.6,251,[0 0 4.35733273024002],NA,NA,earthquake_local,ODSA.TX_20200901074800_EV
TX,ODSA,BH,32.12009,-102.549133,943,700,manual,0.04,60.4,3222.00005637086,manual,0.03,NA,NA,0.25,31.750833333333333,104.086,NA,113,NA,5,NA,2.65,ml,None,None,NA,148.7,254,[0 0 4.02848399920872],NA,NA,earthquake_local,ODSA.TX_20200902051800_EV
TX,ODSA,BH,32.12009,-102.549133,943,700,manual,0.03,43.82,3170.000055208802,manual,0.04,NA,NA,0.25,31.768,104.10533333333333,NA,113,NA,5,NA,2.61,ml,None,None,NA,149.9,255,[0 0 5.61934355815795],NA,NA,earthquake_local,ODSA.TX_20200902141300_EV
TX,PB07,BH,31.57935,-103.66793,856,700,manual,0.37,36.82,2013.000029347837,manual,0.22,NA,NA,0.25,31.5965,104.12483333333333,NA,139,NA,5,NA,2.21,ml,None,None,NA,42.9,273,[0 0 8.40727967558757],NA,NA,earthquake_local,PB07.TX_20200901032600_EV
TX,PB07,BH,31.57935,-103.66793,856,700,manual,0.15,70.57,1797.0000245198607,manual,0.14,NA,NA,0.25,31.749333333333333,104.08533333333334,NA,113,NA,5,NA,2.17,ml,None,None,NA,43.6,296,[0 0 11.2192010665409],NA,NA,earthquake_local,PB07.TX_20200901060500_EV
TX,PB07,BH,31.57935,-103.66793,856,700,manual,0.17,82.21,2258.0000348240137,manual,0.52,NA,NA,0.25,31.216,103.33833333333334,NA,213,NA,5,NA,1.66,ml,None,None,NA,51.2,142,[0 0 9.03319927382553],NA,NA,earthquake_local,PB07.TX_20200901064900_EV
TX,PB07,BH,31.57935,-103.66793,856,700,manual,0.09,27.12,1928.000027447939,manual,0.37,NA,NA,0.5,31.755166666666668,104.05983333333333,NA,110,NA,5,NA,1.8,ml,None,None,NA,41.8,298,[0 0 7.0784215150644],NA,NA,earthquake_local,PB07.TX_20200901095900_EV
TX,PB07,BH,31.57935,-103.66793,856,700,manual,0.06,64.53,2107.000031449832,manual,0.2,NA,NA,0.5,31.642333333333333,104.4815,NA,156,NA,5,NA,2.01,ml,None,None,NA,76.6,275,[0 0 8.43217683020127],NA,NA,earthquake_local,PB07.TX_20200901185100_EV
TX,PB07,BH,31.57935,-103.66793,856,700,manual,0.12,83.7,2296.0000356752425,manual,0.22,NA,NA,0.25,31.728666666666665,104.38766666666666,NA,139,NA,5,NA,2.13,ml,None,None,NA,69.6,284,[0 0 9.77800131261121],NA,NA,earthquake_local,PB07.TX_20200901234300_EV
TX,PB07,BH,31.57935,-103.66793,856,700,manual,0.34,78.71,1928.000027447939,manual,0.19,NA,NA,0,31.741,104.0895,NA,115,NA,5,NA,2.27,ml,None,None,NA,43.6,294,[0 0 2.32115126287038],NA,NA,earthquake_local,PB07.TX_20200902013500_EV
TX,PB07,BH,31.57935,-103.66793,856,700,manual,0.17,67.21,1759.0000236704946,manual,0.15,NA,NA,0.25,31.754,104.09733333333334,NA,114,NA,5,NA,2.56,ml,None,None,NA,44.9,296,[0 0 3.80310143190237],NA,NA,earthquake_local,PB07.TX_20200902050800_EV
TX,PB07,BH,31.57935,-103.66793,856,700,manual,0.12,43.67,1938.0000276714563,manual,0.21,NA,NA,0.25,31.750833333333333,104.086,NA,113,NA,5,NA,2.65,ml,None,None,NA,43.8,296,[0 0 2.4664659963427],NA,NA,earthquake_local,PB07.TX_20200902051800_EV
TX,PB07,BH,31.57935,-103.66793,856,700,manual,0.07,79.45,2027.0000296607614,manual,0.28,NA,NA,0.5,31.671,104.21433333333333,NA,136,NA,5,NA,1.02,ml,None,None,NA,52.3,281,[0 0 6.39069068309363],NA,NA,earthquake_local,PB07.TX_20200902053800_EV
TX,PB07,BH,31.57935,-103.66793,856,700,manual,0.16,88.5,1788.000024318695,manual,0.08,NA,NA,0.25,31.761,104.081,NA,112,NA,5,NA,2.46,ml,None,None,NA,43.9,297,[0 0 3.98859087421456],NA,NA,earthquake_local,PB07.TX_20200902070200_EV
TX,PB07,BH,31.57935,-103.66793,856,700,manual,0.21,51.7,1841.0000255033374,manual,0.39,NA,NA,0.25,31.758,104.08616666666667,NA,113,NA,5,NA,1.97,ml,None,None,NA,44.1,297,[0 0 3.88092838416607],NA,NA,earthquake_local,PB07.TX_20200902085000_EV
TX,PB07,BH,31.57935,-103.66793,856,700,manual,0.08,61.08,2393.000037841499,manual,0.13,NA,NA,0.5,31.696833333333334,104.514,NA,149,NA,5,NA,2.29,ml,None,None,NA,80.4,279,[0 0 6.8520358984992],NA,NA,earthquake_local,PB07.TX_20200902115100_EV
TX,PB07,BH,31.57935,-103.66793,856,700,manual,0.12,41.38,1890.0000265985727,manual,0.22,NA,NA,0.25,31.749666666666666,104.08316666666667,NA,113,NA,5,NA,2.19,ml,None,None,NA,43.5,296,[0 0 5.30121463374635],NA,NA,earthquake_local,PB07.TX_20200902140400_EV
TX,PB07,BH,31.57935,-103.66793,856,700,manual,0.11,27.35,2060.000030398369,manual,0.19,NA,NA,0.25,31.768,104.10533333333333,NA,113,NA,5,NA,2.61,ml,None,None,NA,46.3,297,[0 0 5.29650938922805],NA,NA,earthquake_local,PB07.TX_20200902141300_EV
TX,PB07,BH,31.57935,-103.66793,856,700,manual,0.12,43.16,1986.00002874434,manual,0.21,NA,NA,0.25,31.735333333333333,104.096,NA,116,NA,5,NA,2.31,ml,None,None,NA,43.9,293,[0 0 8.87932409412328],NA,NA,earthquake_local,PB07.TX_20200902221700_EV
TX,PB11,BH,31.93553,-104.034119,915,700,manual,0.11,66.88,1735.0000231340528,manual,0.24,NA,NA,0.25,31.749333333333333,104.08533333333334,NA,113,NA,5,NA,2.17,ml,None,None,NA,21.1,192,[0 0 11.7079475094592],NA,NA,earthquake_local,PB11.TX_20200901060500_EV
TX,PB11,BH,31.93553,-104.034119,915,700,manual,0.09,43.55,2102.000031337142,manual,0.26,NA,NA,0.25,31.615,104.29433333333333,NA,151,NA,5,NA,2.36,ml,None,None,NA,42.8,214,[0 0 14.7950715763869],NA,NA,earthquake_local,PB11.TX_20200901074800_EV
TX,PB11,BH,31.93553,-104.034119,915,700,manual,0.11,23.76,1737.0000231782906,manual,0.22,NA,NA,0.25,31.755166666666668,104.05983333333333,NA,110,NA,5,NA,1.8,ml,None,None,NA,20.1,186,[0 0 5.53950665463589],NA,NA,earthquake_local,PB11.TX_20200901095900_EV
TX,PB11,BH,31.93553,-104.034119,915,700,manual,0.09,40.37,1753.000023536384,manual,0.22,NA,NA,0.25,31.7275,104.1175,NA,119,NA,5,NA,2.2,ml,None,None,NA,24.3,198,[0 0 14.2580805810971],NA,NA,earthquake_local,PB11.TX_20200901103700_EV
TX,PB11,BH,31.93553,-104.034119,915,700,manual,0.1,47.74,1867.0000260844827,manual,0.26,NA,NA,0.25,31.66433333333333,104.18716666666667,NA,134,NA,5,NA,2.13,ml,None,None,NA,33.1,205,[0 0 6.3351949774755],NA,NA,earthquake_local,PB11.TX_20200901131900_EV
TX,PB11,BH,31.93553,-104.034119,915,700,manual,0.04,58.46,2125.000031851232,manual,0.19,NA,NA,0.5,31.642333333333333,104.4815,NA,156,NA,5,NA,2.01,ml,None,None,NA,52.7,232,[0 0 9.6588360008352],NA,NA,earthquake_local,PB11.TX_20200901185100_EV
TX,PB11,BH,31.93553,-104.034119,915,700,manual,0.23,61.69,1717.0000227317214,manual,0.51,NA,NA,0.25,31.752666666666666,104.0665,NA,111,NA,5,NA,1.71,ml,None,None,NA,20.5,188,[0 0 7.12665931762604],NA,NA,earthquake_local,PB11.TX_20200901231900_EV
TX,PB11,BH,31.93553,-104.034119,915,700,manual,0.06,74.75,1726.000022932887,manual,0.13,NA,NA,0.25,31.741,104.0895,NA,115,NA,5,NA,2.27,ml,None,None,NA,22.1,193,[0 0 3.79268647892024],NA,NA,earthquake_local,PB11.TX_20200902013500_EV
TX,PB11,BH,31.93553,-104.034119,915,700,manual,0.06,63.27,1731.0000230446458,manual,0.13,NA,NA,0.25,31.754,104.09733333333334,NA,114,NA,5,NA,2.56,ml,None,None,NA,20.9,196,[0 0 4.62297268614355],NA,NA,earthquake_local,PB11.TX_20200902050800_EV
TX,PB11,BH,31.93553,-104.034119,915,700,manual,0.06,39.82,1719.000022776192,manual,0.13,NA,NA,0.25,31.750833333333333,104.086,NA,113,NA,5,NA,2.65,ml,None,None,NA,21,193,[0 0 4.21915314483626],NA,NA,earthquake_local,PB11.TX_20200902051800_EV
TX,PB11,BH,31.93553,-104.034119,915,700,manual,0.08,75.66,1878.000026330119,manual,0.23,NA,NA,0.5,31.671,104.21433333333333,NA,136,NA,5,NA,1.02,ml,None,None,NA,33.6,209,[0 0 6.02627088861042],NA,NA,earthquake_local,PB11.TX_20200902053800_EV
TX,PB11,BH,31.93553,-104.034119,915,700,manual,0.14,55.34,1751.0000234916806,manual,0.28,NA,NA,0.25,31.744333333333334,104.05483333333333,NA,131,NA,5,NA,1.95,ml,None,None,NA,21.3,184,[0 0 3.63654899352754],NA,NA,earthquake_local,PB11.TX_20200902065600_EV
TX,PB11,BH,31.93553,-104.034119,915,700,manual,0.06,84.68,1630.0000207871199,manual,0.06,NA,NA,0.25,31.761,104.081,NA,112,NA,5,NA,2.46,ml,None,None,NA,19.8,192,[0 0 3.91946388479088],NA,NA,earthquake_local,PB11.TX_20200902070200_EV
TX,PB11,BH,31.93553,-104.034119,915,700,manual,0.3,44.5,1848.0000256597996,manual,0.31,NA,NA,0.25,31.6965,104.15066666666667,NA,126,NA,5,NA,1.7,ml,None,None,NA,28.5,202,[0 0 4.63303108192693],NA,NA,earthquake_local,PB11.TX_20200902071900_EV
TX,PB11,BH,31.93553,-104.034119,915,700,manual,0.12,47.43,1722.00002284348,manual,0.31,NA,NA,0.25,31.758,104.08616666666667,NA,113,NA,5,NA,1.97,ml,None,None,NA,20.2,193,[0 0 2.70006839031238],NA,NA,earthquake_local,PB11.TX_20200902085000_EV
TX,PB11,BH,31.93553,-104.034119,915,700,manual,0.2,21.45,1990.000028833747,manual,0.81,NA,NA,0.5,31.7145,104.08366666666667,NA,141,NA,5,NA,1.11,ml,None,None,NA,24.9,190,[0 0 3.97127500931146],NA,NA,earthquake_local,PB11.TX_20200902085800_EV
TX,PB11,BH,31.93553,-104.034119,915,700,manual,0.1,56.48,2104.000031380914,manual,0.21,NA,NA,0.25,31.696833333333334,104.514,NA,149,NA,5,NA,2.29,ml,None,None,NA,51.8,239,[0 0 3.97025503590944],NA,NA,earthquake_local,PB11.TX_20200902115100_EV
TX,PB11,BH,31.93553,-104.034119,915,700,manual,0.15,24.88,1784.0000242302194,manual,0.37,NA,NA,0.25,31.6445,104.27433333333333,NA,145,NA,5,NA,2.18,ml,None,None,NA,39.1,214,[0 0 3.0008835523503],NA,NA,earthquake_local,PB11.TX_20200902121600_EV
TX,PB11,BH,31.93553,-104.034119,915,700,manual,0.14,62.33,1733.0000230893493,manual,0.33,NA,NA,0.25,31.752,104.08066666666667,NA,113,NA,5,NA,2.2,ml,None,None,NA,20.7,191,[0 0 4.7008253718092],NA,NA,earthquake_local,PB11.TX_20200902131000_EV
TX,PB11,BH,31.93553,-104.034119,915,700,manual,0.13,61.28,1689.0000221058726,manual,0.28,NA,NA,0.5,31.754666666666665,104.05233333333334,NA,109,NA,5,NA,1.95,ml,None,None,NA,20.1,184,[0 0 3.13753525598944],NA,NA,earthquake_local,PB11.TX_20200902134900_EV
TX,PB11,BH,31.93553,-104.034119,915,700,manual,0.07,37.47,1701.0000223740935,manual,0.14,NA,NA,0.25,31.749666666666666,104.08316666666667,NA,113,NA,5,NA,2.19,ml,None,None,NA,21.1,192,[0 0 4.83649497029859],NA,NA,earthquake_local,PB11.TX_20200902140400_EV
TX,PB11,BH,31.93553,-104.034119,915,700,manual,0.05,23.28,1724.0000228881836,manual,0.11,NA,NA,0.25,31.768,104.10533333333333,NA,113,NA,5,NA,2.61,ml,None,None,NA,19.6,199,[0 0 6.47088211860375],NA,NA,earthquake_local,PB11.TX_20200902141300_EV
TX,PB11,BH,31.93553,-104.034119,915,700,manual,0.1,72.52,1724.000022889115,manual,0.2,NA,NA,0.25,31.739,104.07433333333333,NA,113,NA,5,NA,2.08,ml,None,None,NA,22.1,189,[0 0 5.71731175524789],NA,NA,earthquake_local,PB11.TX_20200902160000_EV
TX,PB11,BH,31.93553,-104.034119,915,700,manual,0.04,44.61,1869.0000261291862,manual,0.21,NA,NA,0.5,31.709833333333332,104.3605,NA,140,NA,5,NA,2.13,ml,None,None,NA,39.2,230,[0 0 4.23753030590093],NA,NA,earthquake_local,PB11.TX_20200902165300_EV
TX,PB11,BH,31.93553,-104.034119,915,700,manual,0.19,37.32,1939.000027693808,manual,0.47,NA,NA,0.25,31.618166666666667,104.20383333333334,NA,143,NA,5,NA,2.06,ml,None,None,NA,38.4,204,[0 0 5.67562320186429],NA,NA,earthquake_local,PB11.TX_20200902180300_EV
TX,PB11,BH,31.93553,-104.034119,915,700,manual,0.12,56.03,1726.000022932887,manual,0.26,NA,NA,0.25,31.745333333333335,104.084,NA,114,NA,5,NA,2.1,ml,None,None,NA,21.5,192,[0 0 3.68328250994881],NA,NA,earthquake_local,PB11.TX_20200902204500_EV
TX,PB11,BH,31.93553,-104.034119,915,700,manual,0.07,39.6,1731.0000230437145,manual,0.16,NA,NA,0.25,31.735333333333333,104.096,NA,116,NA,5,NA,2.31,ml,None,None,NA,22.9,194,[0 0 3.64546259362972],NA,NA,earthquake_local,PB11.TX_20200902221700_EV
TX,PB11,BH,31.93553,-104.034119,915,700,manual,0.08,81.94,1715.000022687018,manual,0.17,NA,NA,0.25,31.729333333333333,104.08566666666667,NA,116,NA,5,NA,2.23,ml,None,None,NA,23.3,191,[0 0 4.23417680044198],NA,NA,earthquake_local,PB11.TX_20200902230600_EV
SC,PDB,BH,32.0722,-103.59662,1025,700,manual,0.05,81.01,2129.000031940639,manual,0.13,NA,NA,0.25,31.741,104.0895,NA,115,NA,5,NA,2.27,ml,None,None,NA,58.5,231,[0 0 4.93079198649893],NA,NA,earthquake_local,PDB.SC_20200902013500_EV
SC,PDB,BH,32.0722,-103.59662,1025,700,manual,0.05,69.35,2173.0000329243485,manual,0.12,NA,NA,0.25,31.754,104.09733333333334,NA,114,NA,5,NA,2.56,ml,None,None,NA,58.2,233,[0 0 3.4334738702494],NA,NA,earthquake_local,PDB.SC_20200902050800_EV
SC,PDB,BH,32.0722,-103.59662,1025,700,manual,0.05,46.09,2151.0000324321445,manual,0.14,NA,NA,0.25,31.750833333333333,104.086,NA,113,NA,5,NA,2.65,ml,None,None,NA,57.6,232,[0 0 4.34811041676532],NA,NA,earthquake_local,PDB.SC_20200902051800_EV
SC,PDB,BH,32.0722,-103.59662,1025,700,manual,0.06,90.79,2159.0000326111913,manual,0.15,NA,NA,0.25,31.761,104.081,NA,112,NA,5,NA,2.46,ml,None,None,NA,56.5,232,[0 0 1.97831816905759],NA,NA,earthquake_local,PDB.SC_20200902070200_EV
SC,PDB,BH,32.0722,-103.59662,1025,700,manual,0.11,37.89,2313.000036052428,manual,0.29,NA,NA,0.25,31.719,104.0805,NA,116,NA,5,NA,2.05,ml,None,None,NA,59.4,229,[0 0 4.24677872021096],NA,NA,earthquake_local,PDB.SC_20200902114500_EV
SC,PDB,BH,32.0722,-103.59662,1025,700,manual,0.04,29.71,2154.0000324994326,manual,0.11,NA,NA,0.25,31.768,104.10533333333333,NA,113,NA,5,NA,2.61,ml,None,None,NA,57.9,234,[0 0 1.07310781447081],NA,NA,earthquake_local,PDB.SC_20200902141300_EV
SC,PDB,BH,32.0722,-103.59662,1025,700,manual,0.06,45.12,2193.000033372082,manual,0.16,NA,NA,0.25,31.735333333333333,104.096,NA,116,NA,5,NA,2.31,ml,None,None,NA,59.4,231,[0 0 3.83564198194458],NA,NA,earthquake_local,PDB.SC_20200902221700_EV
SC,PDB,BH,32.0722,-103.59662,1025,700,manual,0.04,89.07,2067.000030554831,manual,0.21,NA,NA,0.5,31.729333333333333,104.08566666666667,NA,116,NA,5,NA,2.23,ml,None,None,NA,59,230,[0 0 -0.232942149591067],NA,NA,earthquake_local,PDB.SC_20200902230600_EV
TX,PECS,BH,31.370449,-103.866966,914,700,manual,0.38,79.54,1873.0000262185931,manual,0.61,NA,NA,0.25,31.701833333333333,103.993,NA,191,NA,5,NA,1.85,ml,None,None,NA,38.8,341,[0 0 13.9522604789334],NA,NA,earthquake_local,PECS.TX_20200901013100_EV
TX,PECS,BH,31.370449,-103.866966,914,700,manual,0.37,55.91,1859.0000259056687,manual,0.63,NA,NA,0.25,31.6535,104.05766666666666,NA,175,NA,5,NA,1.64,ml,None,None,NA,36.3,330,[0 0 2.83715067937296],NA,NA,earthquake_local,PECS.TX_20200901013500_EV
TX,PECS,BH,31.370449,-103.866966,914,700,manual,0.35,90.6,1858.000025883317,manual,0.53,NA,NA,0.25,31.572666666666667,104.22016666666667,NA,153,NA,5,NA,2.03,ml,None,None,NA,40.2,304,[0 0 12.9299319157296],NA,NA,earthquake_local,PECS.TX_20200901023700_EV
TX,PECS,BH,31.370449,-103.866966,914,700,manual,0.22,34.83,1678.0000218600035,manual,0.38,NA,NA,0.5,31.5965,104.12483333333333,NA,139,NA,5,NA,2.21,ml,None,None,NA,35.1,316,[0 0 11.1952395500076],NA,NA,earthquake_local,PECS.TX_20200901032600_EV
TX,PECS,BH,31.370449,-103.866966,914,700,manual,0.34,51.36,2013.000029347837,manual,0.62,NA,NA,0.25,31.748833333333334,104.29816666666666,NA,143,NA,5,NA,1.85,ml,None,None,NA,58.6,316,[0 0 7.34290653869903],NA,NA,earthquake_local,PECS.TX_20200901040500_EV
TX,PECS,BH,31.370449,-103.866966,914,700,manual,0.2,70.6,1952.0000279843807,manual,0.34,NA,NA,0.25,31.749333333333333,104.08533333333334,NA,113,NA,5,NA,2.17,ml,None,None,NA,47,333,[0 0 24.1379564881799],NA,NA,earthquake_local,PECS.TX_20200901060500_EV
TX,PECS,BH,31.370449,-103.866966,914,700,manual,0.43,83.59,2056.000030308962,manual,0.56,NA,NA,0.25,31.216,103.33833333333334,NA,213,NA,5,NA,1.66,ml,None,None,NA,52.7,109,[0 0 6.66035677915255],NA,NA,earthquake_local,PECS.TX_20200901064900_EV
TX,PECS,BH,31.370449,-103.866966,914,700,manual,0.45,39.96,1817.0000249673612,manual,0.75,NA,NA,0.25,31.599166666666665,104.17616666666666,NA,204,NA,5,NA,1.97,ml,None,None,NA,38.8,311,[0 0 4.79631543331001],NA,NA,earthquake_local,PECS.TX_20200901073300_EV
TX,PECS,BH,31.370449,-103.866966,914,700,manual,0.22,45.41,2106.0000314270146,manual,0.37,NA,NA,0.25,31.615,104.29433333333333,NA,151,NA,5,NA,2.36,ml,None,None,NA,48.7,304,[0 0 23.973506495493],NA,NA,earthquake_local,PECS.TX_20200901074800_EV
TX,PECS,BH,31.370449,-103.866966,914,700,manual,0.36,72.58,2120.0000317390077,manual,0.63,NA,NA,0.25,31.622166666666665,104.29533333333333,NA,150,NA,5,NA,2.29,ml,None,None,NA,49.2,305,[0 0 14.26268625388],NA,NA,earthquake_local,PECS.TX_20200901075300_EV
TX,PECS,BH,31.370449,-103.866966,914,700,manual,0.22,27.64,1969.000028364826,manual,0.38,NA,NA,0.25,31.755166666666668,104.05983333333333,NA,110,NA,5,NA,1.8,ml,None,None,NA,46.6,336,[0 0 12.0341382437077],NA,NA,earthquake_local,PECS.TX_20200901095900_EV
TX,PECS,BH,31.370449,-103.866966,914,700,manual,0.24,43.32,1948.0000278949738,manual,0.41,NA,NA,0.25,31.7275,104.1175,NA,119,NA,5,NA,2.2,ml,None,None,NA,46.3,329,[0 0 12.8214096940229],NA,NA,earthquake_local,PECS.TX_20200901103700_EV
TX,PECS,BH,31.370449,-103.866966,914,700,manual,0.52,43.56,1922.0000273147598,manual,0.45,NA,NA,0.25,31.6795,104.16033333333333,NA,159,NA,5,NA,1.71,ml,None,None,NA,44.2,321,[0 0 7.67182515273982],NA,NA,earthquake_local,PECS.TX_20200901115800_EV
TX,PECS,BH,31.370449,-103.866966,914,700,manual,0.26,49.66,1953.0000280067325,manual,0.44,NA,NA,0.25,31.66433333333333,104.18716666666667,NA,134,NA,5,NA,2.13,ml,None,None,NA,44.6,317,[0 0 13.6849670776881],NA,NA,earthquake_local,PECS.TX_20200901131900_EV
TX,PECS,BH,31.370449,-103.866966,914,700,manual,0.33,67.41,2264.000034958124,manual,0.62,NA,NA,0.25,31.729,104.53916666666667,NA,145,NA,5,NA,1.99,ml,None,None,NA,74.9,302,[0 0 3.47193962916205],NA,NA,earthquake_local,PECS.TX_20200901135800_EV
TX,PECS,BH,31.370449,-103.866966,914,700,manual,0.46,60.18,2221.0000339969993,manual,0.82,NA,NA,0.5,32.0035,103.71866666666666,NA,244,NA,5,NA,1.67,ml,None,None,NA,71.4,10,[0 0 0.449820452908601],NA,NA,earthquake_local,PECS.TX_20200901151500_EV
TX,PECS,BH,31.370449,-103.866966,914,700,manual,0.35,37.03,2108.0000314721838,manual,0.62,NA,NA,0.25,31.691333333333333,104.22283333333333,NA,150,NA,5,NA,1.76,ml,None,None,NA,49.1,316,[0 0 5.9836307632427],NA,NA,earthquake_local,PECS.TX_20200901154500_EV
TX,PECS,BH,31.370449,-103.866966,914,700,manual,0.18,59.7,2242.000034466386,manual,0.3,NA,NA,0.25,31.642333333333333,104.4815,NA,156,NA,5,NA,2.01,ml,None,None,NA,65.3,297,[0 0 21.0888450303538],NA,NA,earthquake_local,PECS.TX_20200901185100_EV
TX,PECS,BH,31.370449,-103.866966,914,700,manual,0.35,56.25,2237.000034354627,manual,0.62,NA,NA,0.25,31.66583333333333,104.45166666666667,NA,151,NA,5,NA,2.07,ml,None,None,NA,64.2,301,[0 0 7.61571033623832],NA,NA,earthquake_local,PECS.TX_20200901195100_EV
TX,PECS,BH,31.370449,-103.866966,914,700,manual,0.33,84.32,2297.000035693869,manual,0.62,NA,NA,0.25,31.74266666666667,104.51666666666667,NA,142,NA,5,NA,1.94,ml,None,None,NA,74,304,[0 0 6.90595868106652],NA,NA,earthquake_local,PECS.TX_20200901225800_EV
TX,PECS,BH,31.370449,-103.866966,914,700,manual,0.33,92.32,1966.0000282963738,manual,0.61,NA,NA,0.25,31.701166666666666,104.31766666666667,NA,139,NA,5,NA,2.19,ml,None,None,NA,56.3,311,[0 0 13.7938765401591],NA,NA,earthquake_local,PECS.TX_20200901230400_EV
TX,PECS,BH,31.370449,-103.866966,914,700,manual,0.2,81.8,2124.0000318270177,manual,0.17,NA,NA,0.25,31.728666666666665,104.38766666666666,NA,139,NA,5,NA,2.13,ml,None,None,NA,63.3,309,[0 0 17.3237901082097],NA,NA,earthquake_local,PECS.TX_20200901234300_EV
SC,SRH,BH,32.491798,-104.515404,1276,700,manual,0.11,55.59,2538.0000410822686,manual,0.21,NA,NA,0.25,31.748833333333334,104.29816666666666,NA,143,NA,5,NA,1.85,ml,None,None,NA,85.1,166,[0 0 14.8666802839491],NA,NA,earthquake_local,SRH.SC_20200901040500_EV
SC,SRH,BH,32.491798,-104.515404,1276,700,manual,0.07,76.82,2468.0000395178795,manual,0.13,NA,NA,0.25,31.749333333333333,104.08533333333334,NA,113,NA,5,NA,2.17,ml,None,None,NA,92.1,153,[0 0 19.3276078660894],NA,NA,earthquake_local,SRH.SC_20200901060500_EV
SC,SRH,BH,32.491798,-104.515404,1276,700,manual,0.18,50.27,2797.000046872068,manual,0.28,NA,NA,0.25,31.599166666666665,104.17616666666666,NA,204,NA,5,NA,1.97,ml,None,None,NA,104.3,162,[0 0 11.3060888345236],NA,NA,earthquake_local,SRH.SC_20200901073300_EV
SC,SRH,BH,32.491798,-104.515404,1276,700,manual,0.07,53.22,2603.000042534899,manual,0.08,NA,NA,0.25,31.615,104.29433333333333,NA,151,NA,5,NA,2.36,ml,None,None,NA,99.7,167,[0 0 24.9459027177745],NA,NA,earthquake_local,SRH.SC_20200901074800_EV
SC,SRH,BH,32.491798,-104.515404,1276,700,manual,0.04,36.12,2340.000036656391,manual,0.07,NA,NA,0.5,31.755166666666668,104.05983333333333,NA,110,NA,5,NA,1.8,ml,None,None,NA,92.6,152,[0 0 12.6237921135919],NA,NA,earthquake_local,SRH.SC_20200901095900_EV
SC,SRH,BH,32.491798,-104.515404,1276,700,manual,0.07,51.07,2425.0000385567546,manual,0.12,NA,NA,0.25,31.7275,104.1175,NA,119,NA,5,NA,2.2,ml,None,None,NA,93,156,[0 0 18.6901565592075],NA,NA,earthquake_local,SRH.SC_20200901103700_EV
SC,SRH,BH,32.491798,-104.515404,1276,700,manual,0.04,57.16,2532.000040948391,manual,0.07,NA,NA,0.5,31.66433333333333,104.18716666666667,NA,134,NA,5,NA,2.13,ml,None,None,NA,97.1,161,[0 0 22.7560061233232],NA,NA,earthquake_local,SRH.SC_20200901131900_EV
SC,SRH,BH,32.491798,-104.515404,1276,700,manual,0.11,68.4,2679.000044234097,manual,0.23,NA,NA,0.25,31.729,104.53916666666667,NA,145,NA,5,NA,1.99,ml,None,None,NA,84.6,181,[0 0 18.5778827837021],NA,NA,earthquake_local,SRH.SC_20200901135800_EV
SC,SRH,BH,32.491798,-104.515404,1276,700,manual,0.3,36.12,2418.0000384002924,manual,0.33,NA,NA,0.5,31.7375,104.27583333333334,NA,277,NA,5,NA,1.81,ml,None,None,NA,86.9,164,[0 0 9.86802702375207],NA,NA,earthquake_local,SRH.SC_20200901151300_EV
SC,SRH,BH,32.491798,-104.515404,1276,700,manual,0.3,62.99,2587.0000421777368,manual,0.49,NA,NA,0.5,32.0035,103.71866666666666,NA,244,NA,5,NA,1.67,ml,None,None,NA,92.6,126,[0 0 13.6229756882873],NA,NA,earthquake_local,SRH.SC_20200901151500_EV
SC,SRH,BH,32.491798,-104.515404,1276,700,manual,0.07,65.15,2592.000042290427,manual,0.15,NA,NA,0.25,31.642333333333333,104.4815,NA,156,NA,5,NA,2.01,ml,None,None,NA,94.3,177,[0 0 35.7124172076504],NA,NA,earthquake_local,SRH.SC_20200901185100_EV
SC,SRH,BH,32.491798,-104.515404,1276,700,manual,0.11,61.24,2627.000043070875,manual,0.23,NA,NA,0.25,31.66583333333333,104.45166666666667,NA,151,NA,5,NA,2.07,ml,None,None,NA,91.9,176,[0 0 19.1778280030702],NA,NA,earthquake_local,SRH.SC_20200901195100_EV
SC,SRH,BH,32.491798,-104.515404,1276,700,manual,0.37,38.31,2486.000039920211,manual,0.62,NA,NA,0.25,32.060833333333335,103.68716666666667,NA,313,NA,5,NA,2.16,ml,None,None,NA,91.4,122,[0 0 15.5793380611816],NA,NA,earthquake_local,SRH.SC_20200901200900_EV
SC,SRH,BH,32.491798,-104.515404,1276,700,manual,0.07,30.52,2286.000035450794,manual,0.17,NA,NA,0.5,31.9615,103.88616666666667,NA,177,NA,5,NA,1.77,ml,None,None,NA,83.7,135,[0 0 10.3201601799533],NA,NA,earthquake_local,SRH.SC_20200901225500_EV
SC,SRH,BH,32.491798,-104.515404,1276,700,manual,0.11,86.06,2475.0000396743417,manual,0.23,NA,NA,0.25,31.74266666666667,104.51666666666667,NA,142,NA,5,NA,1.94,ml,None,None,NA,83.1,179,[0 0 20.4283750702596],NA,NA,earthquake_local,SRH.SC_20200901225800_EV
SC,SRH,BH,32.491798,-104.515404,1276,700,manual,0.06,86.18,2628.000043094158,manual,0.11,NA,NA,0.25,31.741,104.0895,NA,115,NA,5,NA,2.27,ml,None,None,NA,92.8,154,[0 0 0.659804828069445],NA,NA,earthquake_local,SRH.SC_20200902013500_EV
SC,SRH,BH,32.491798,-104.515404,1276,700,manual,0.09,30.52,2629.0000431163935,manual,0.18,NA,NA,0.5,31.621,104.14966666666666,NA,153,NA,5,NA,1.9,ml,None,None,NA,102.9,160,[0 0 4.42111086253893],NA,NA,earthquake_local,SRH.SC_20200902023700_EV
SC,SRH,BH,32.491798,-104.515404,1276,700,manual,0.11,33.25,2532.000040948391,manual,0.22,NA,NA,0.25,31.740833333333335,104.36416666666666,NA,136,NA,5,NA,2.24,ml,None,None,NA,84.7,170,[0 0 3.83810966948469],NA,NA,earthquake_local,SRH.SC_20200902025400_EV
SC,SRH,BH,32.491798,-104.515404,1276,700,manual,0.11,57.05,2514.0000405460596,manual,0.22,NA,NA,0.25,31.7045,104.32533333333333,NA,139,NA,5,NA,2.27,ml,None,None,NA,89.3,168,[0 0 1.64105841479375],NA,NA,earthquake_local,SRH.SC_20200902032100_EV
SC,SRH,BH,32.491798,-104.515404,1276,700,manual,0.18,66.18,2487.0000399423297,manual,0.17,NA,NA,0.5,31.9935,103.73,NA,242,NA,5,NA,1.75,ml,None,None,NA,92.4,127,[0 0 4.24609243401773],NA,NA,earthquake_local,SRH.SC_20200902035400_EV
SC,SRH,BH,32.491798,-104.515404,1276,700,manual,0.06,37.51,2598.000042423606,manual,0.24,NA,NA,0.5,31.676166666666667,104.52433333333333,NA,153,NA,5,NA,1.67,ml,None,None,NA,90.5,180,[0 0 3.7238660127297],NA,NA,earthquake_local,SRH.SC_20200902042000_EV
SC,SRH,BH,32.491798,-104.515404,1276,700,manual,0.06,6.96,2736.000045508379,manual,0.21,NA,NA,0.75,31.655333333333335,104.50133333333333,NA,155,NA,5,NA,1.89,ml,None,None,NA,92.8,179,[0 0 4.54436296426874],NA,NA,earthquake_local,SRH.SC_20200902042200_EV
SC,SRH,BH,32.491798,-104.515404,1276,700,manual,0.06,74.31,2471.0000395849347,manual,0.11,NA,NA,0.25,31.754,104.09733333333334,NA,114,NA,5,NA,2.56,ml,None,None,NA,91.1,154,[0 0 6.26466756811745],NA,NA,earthquake_local,SRH.SC_20200902050800_EV
SC,SRH,BH,32.491798,-104.515404,1276,700,manual,0.06,50.76,2566.00004170835,manual,0.06,NA,NA,0.25,31.750833333333333,104.086,NA,113,NA,5,NA,2.65,ml,None,None,NA,91.9,153,[0 0 3.72253789109217],NA,NA,earthquake_local,SRH.SC_20200902051800_EV
SC,SRH,BH,32.491798,-104.515404,1276,700,manual,0.09,86.59,2544.000041216379,manual,0.17,NA,NA,0.25,31.671,104.21433333333333,NA,136,NA,5,NA,1.02,ml,None,None,NA,95.6,162,[0 0 4.03534147258244],NA,NA,earthquake_local,SRH.SC_20200902053800_EV
SC,SRH,BH,32.491798,-104.515404,1276,700,manual,0.07,68.19,2463.000039406121,manual,0.13,NA,NA,0.25,31.744333333333334,104.05483333333333,NA,131,NA,5,NA,1.95,ml,None,None,NA,93.9,152,[0 0 2.34343655966344],NA,NA,earthquake_local,SRH.SC_20200902065600_EV
SC,SRH,BH,32.491798,-104.515404,1276,700,manual,0.04,59.83,2337.0000365898013,manual,0.09,NA,NA,0.75,31.670833333333334,104.46666666666667,NA,151,NA,5,NA,1.96,ml,None,None,NA,91.3,176,[0 0 6.25209740929131],NA,NA,earthquake_local,SRH.SC_20200902083000_EV
SC,SRH,BH,32.491798,-104.515404,1276,700,manual,0.07,42.01,2374.0000374172814,manual,0.24,NA,NA,0.5,31.704,104.525,NA,148,NA,5,NA,1.83,ml,None,None,NA,87.4,180,[0 0 5.20693337864392],NA,NA,earthquake_local,SRH.SC_20200902083600_EV
SC,SRH,BH,32.491798,-104.515404,1276,700,manual,0.07,59.5,2201.0000335499644,manual,0.13,NA,NA,0.25,31.758,104.08616666666667,NA,113,NA,5,NA,1.97,ml,None,None,NA,91.2,153,[0 0 3.05449939130268],NA,NA,earthquake_local,SRH.SC_20200902085000_EV
SC,SRH,BH,32.491798,-104.515404,1276,700,manual,0.09,87.26,2438.0000388468616,manual,0.16,NA,NA,0.25,31.758,104.05883333333334,NA,130,NA,5,NA,2.09,ml,None,None,NA,92.4,152,[0 0 2.65194384301584],NA,NA,earthquake_local,SRH.SC_20200902095400_EV
SC,SRH,BH,32.491798,-104.515404,1276,700,manual,0.08,84.78,2397.0000379313715,manual,0.16,NA,NA,0.25,31.6895,104.39833333333333,NA,145,NA,5,NA,2.05,ml,None,None,NA,89.8,172,[0 0 6.75896188511795],NA,NA,earthquake_local,SRH.SC_20200902101300_EV
SC,SRH,BH,32.491798,-104.515404,1276,700,manual,0.08,62.82,2412.000038266182,manual,0.17,NA,NA,0.25,31.696833333333334,104.514,NA,149,NA,5,NA,2.29,ml,None,None,NA,88.2,179,[0 0 6.60354828505201],NA,NA,earthquake_local,SRH.SC_20200902115100_EV
SC,SRH,BH,32.491798,-104.515404,1276,700,manual,0.05,33.92,2471.0000395840034,manual,0.09,NA,NA,0.5,31.6445,104.27433333333333,NA,145,NA,5,NA,2.18,ml,None,None,NA,96.9,166,[0 0 1.26191321360942],NA,NA,earthquake_local,SRH.SC_20200902121600_EV
SC,SRH,BH,32.491798,-104.515404,1276,700,manual,0.08,74.13,2312.0000360310078,manual,0.14,NA,NA,0.25,31.752,104.08066666666667,NA,113,NA,5,NA,2.2,ml,None,None,NA,92,153,[0 0 4.00108897721019],NA,NA,earthquake_local,SRH.SC_20200902131000_EV
SC,SRH,BH,32.491798,-104.515404,1276,700,manual,0.13,28.61,2536.000041037798,manual,0.23,NA,NA,0.25,31.764666666666667,104.04433333333333,NA,140,NA,5,NA,2.29,ml,None,None,NA,92.4,151,[0 0 2.59478599154404],NA,NA,earthquake_local,SRH.SC_20200902132600_EV
SC,SRH,BH,32.491798,-104.515404,1276,700,manual,0.06,34.3,2527.0000408366323,manual,0.11,NA,NA,0.25,31.768,104.10533333333333,NA,113,NA,5,NA,2.61,ml,None,None,NA,89.4,154,[0 0 8.8451625288163],NA,NA,earthquake_local,SRH.SC_20200902141300_EV
SC,SRH,BH,32.491798,-104.515404,1276,700,manual,0.04,84.95,2236.0000343322754,manual,0.07,NA,NA,0.5,31.739,104.07433333333333,NA,113,NA,5,NA,2.08,ml,None,None,NA,93.6,153,[0 0 2.91744676420291],NA,NA,earthquake_local,SRH.SC_20200902160000_EV
SC,SRH,BH,32.491798,-104.515404,1276,700,manual,0.09,82.96,2440.0000388920307,manual,0.1,NA,NA,0.25,31.983666666666668,103.78783333333334,NA,142,NA,5,NA,2.11,ml,None,None,NA,88.8,129,[0 0 13.9059198291857],NA,NA,earthquake_local,SRH.SC_20200902163100_EV
SC,SRH,BH,32.491798,-104.515404,1276,700,manual,0.07,51.81,2470.0000395635143,manual,0.13,NA,NA,0.25,31.709833333333332,104.3605,NA,140,NA,5,NA,2.13,ml,None,None,NA,88.1,170,[0 0 4.63327538392352],NA,NA,earthquake_local,SRH.SC_20200902165300_EV
SC,SRH,BH,32.491798,-104.515404,1276,700,manual,0.1,63.83,2349.000036858022,manual,0.1,NA,NA,0.25,31.706666666666667,104.354,NA,140,NA,5,NA,2.04,ml,None,None,NA,88.6,170,[0 0 11.740861964858],NA,NA,earthquake_local,SRH.SC_20200902174900_EV
SC,SRH,BH,32.491798,-104.515404,1276,700,manual,0.32,38,2648.000043541193,manual,0.3,NA,NA,0.25,31.613833333333332,104.15333333333334,NA,292,NA,5,NA,1.97,ml,None,None,NA,103.5,160,[0 0 7.76625423741342],NA,NA,earthquake_local,SRH.SC_20200902194000_EV
SC,SRH,BH,32.491798,-104.515404,1276,700,manual,0.13,60.71,2667.000043965876,manual,0.25,NA,NA,0.25,31.625666666666667,104.1765,NA,149,NA,5,NA,2.03,ml,None,None,NA,101.5,161,[0 0 6.33425045381475],NA,NA,earthquake_local,SRH.SC_20200902194200_EV
SC,SRH,BH,32.491798,-104.515404,1276,700,manual,0.07,68.61,2362.0000371476635,manual,0.07,NA,NA,0.25,31.745333333333335,104.084,NA,114,NA,5,NA,2.1,ml,None,None,NA,92.5,153,[0 0 6.90842719847317],NA,NA,earthquake_local,SRH.SC_20200902204500_EV
SC,SRH,BH,32.491798,-104.515404,1276,700,manual,0.07,47.87,2690.0000444808975,manual,0.14,NA,NA,0.25,31.629666666666665,103.928,NA,105,NA,5,NA,1.92,ml,None,None,NA,110.9,150,[0 0 2.96056497989271],NA,NA,earthquake_local,SRH.SC_20200902213400_EV
SC,SRH,BH,32.491798,-104.515404,1276,700,manual,0.07,50.51,2661.0000438317657,manual,0.11,NA,NA,0.25,31.735333333333333,104.096,NA,116,NA,5,NA,2.31,ml,None,None,NA,93,154,[0 0 6.00340707603597],NA,NA,earthquake_local,SRH.SC_20200902221700_EV
SC,SSS,BH,32.355099,-103.398598,1072,700,manual,0.04,75.05,2746.0000457316637,manual,0.05,NA,NA,0.25,31.754,104.09733333333334,NA,114,NA,5,NA,2.56,ml,None,None,NA,92.7,224,[0 0 4.63462305674366],NA,NA,earthquake_local,SSS.SC_20200902050800_EV
SC,SSS,BH,32.355099,-103.398598,1072,700,manual,0.04,51.55,2233.000034265453,manual,0.03,NA,NA,0.25,31.750833333333333,104.086,NA,113,NA,5,NA,2.65,ml,None,None,NA,92.2,223,[0 0 4.90435849023093],NA,NA,earthquake_local,SSS.SC_20200902051800_EV
SC,SSS,BH,32.355099,-103.398598,1072,700,manual,0.03,35.1,2496.0000401437283,manual,0.08,NA,NA,0.25,31.768,104.10533333333333,NA,113,NA,5,NA,2.61,ml,None,None,NA,92.1,225,[0 0 3.81189139996325],NA,NA,earthquake_local,SSS.SC_20200902141300_EV
